%!PS-Adobe-3.0 EPSF-3.0 
%%BoundingBox: 0 0 259 414
%%Pages: 0
%%Creator: LibreOffice 4.3
%%Title: none
%%CreationDate: none
%%LanguageLevel: 2
%%EndComments
%%BeginProlog
%%BeginResource: procset SDRes-Prolog 1.0 0
/b4_inc_state save def
/dict_count countdictstack def
/op_count count 1 sub def
userdict begin
0 setgray 0 setlinecap 1 setlinewidth 0 setlinejoin 10 setmiterlimit[] 0 setdash newpath
/languagelevel where {pop languagelevel 1 ne {false setstrokeadjust false setoverprint} if} if
/bdef {bind def} bind def
/c {setgray} bdef
/l {neg lineto} bdef
/rl {neg rlineto} bdef
/lc {setlinecap} bdef
/lj {setlinejoin} bdef
/lw {setlinewidth} bdef
/ml {setmiterlimit} bdef
/ld {setdash} bdef
/m {neg moveto} bdef
/ct {6 2 roll neg 6 2 roll neg 6 2 roll neg curveto} bdef
/r {rotate} bdef
/t {neg translate} bdef
/s {scale} bdef
/sw {show} bdef
/gs {gsave} bdef
/gr {grestore} bdef
/f {findfont dup length dict begin
{1 index /FID ne {def} {pop pop} ifelse} forall /Encoding ISOLatin1Encoding def
currentdict end /NFont exch definefont pop /NFont findfont} bdef
/p {closepath} bdef
/sf {scalefont setfont} bdef
/ef {eofill}bdef
/pc {closepath stroke}bdef
/ps {stroke}bdef
/pum {matrix currentmatrix}bdef
/pom {setmatrix}bdef
/bs {/aString exch def /nXOfs exch def /nWidth exch def currentpoint nXOfs 0 rmoveto pum nWidth aString stringwidth pop div 1 scale aString show pom moveto} bdef
%%EndResource
%%EndProlog
%%BeginSetup
%%EndSetup
%%Page: 1 1
%%BeginPageSetup
%%EndPageSetup
pum
0.02829 0.02835 s 
0 -14600 t
/tm matrix currentmatrix def
tm setmatrix
-5298 -8399 t 
1 1 s 
0 lw 1 lj [ 53.09149 34.2265 ] 0 ld
0.000 c 9447 21998 m  5298 21998 l  5298 9299 l  13597 9299 l  13597 21998 l 
9447 21998 l  pc
[ ] 0 ld
5998 12799 m  5298 12799 l  5298 11399 l  6698 11399 l  6698 12799 l  5998 12799 l 
pc
pum
5788 12320 t
362 0 m  312 -128 l  113 -128 l  63 0 l  1 0 l  180 -438 l  247 -438 l 
422 0 l  362 0 l  p
238 -319 m  235 -327 232 -335 229 -344 ct 226 -352 223 -360 221 -367 ct 218 -374 217 -380 215 -384 ct 
213 -389 213 -392 212 -393 ct 212 -392 211 -389 210 -384 ct 208 -379 206 -373 204 -366 ct 
201 -359 199 -352 196 -343 ct 193 -335 190 -326 187 -318 ct 131 -174 l  294 -174 l 
238 -319 l  p ef
pom
9089 10095 m  11092 12547 l  8117 11259 l  9089 10095 l  9089 10095 l 
pc
11132 10281 m  11175 10239 l  11219 10200 l  11266 10163 l  11315 10128 l 
11365 10096 l  11417 10066 l  11470 10038 l  11524 10014 l  11580 9992 l 
11636 9973 l  11694 9957 l  11753 9944 l  11811 9934 l  11870 9926 l  11929 9922 l 
11989 9920 l  12049 9922 l  12108 9926 l  12167 9934 l  12226 9944 l  12285 9957 l 
12342 9973 l  12398 9992 l  12453 10014 l  12508 10039 l  12561 10066 l 
12612 10096 l  12661 10128 l  12710 10163 l  12756 10201 l  12801 10240 l 
12843 10282 l  12884 10326 l  12921 10372 l  12957 10419 l  12990 10468 l 
13021 10520 l  13049 10572 l  13075 10626 l  13097 10680 l  13117 10737 l 
13134 10794 l  13148 10852 l  13160 10910 l  13168 10969 l  13173 11029 l 
13176 11088 l  13175 11148 l  13171 11207 l  13165 11266 l  13156 11325 l 
13144 11384 l  13128 11441 l  13110 11499 l  13089 11554 l  13065 11609 l 
13039 11663 l  13010 11715 l  12978 11765 l  12945 11815 l  12907 11862 l 
12869 11908 l  12828 11951 l  11983 11113 l  11132 10281 l  pc
9048 14099 m  9926 14099 10597 14769 10597 15648 ct 10597 16527 9926 17198 9048 17198 ct 
8169 17198 7498 16527 7498 15648 ct 7498 14769 8169 14099 9048 14099 ct pc
pum
8820 15870 t
428 -223 m  428 -187 423 -155 412 -127 ct 401 -99 386 -76 367 -57 ct 348 -38 325 -24 299 -14 ct 
273 -5 245 0 215 0 ct 52 0 l  52 -437 l  197 -437 l  230 -437 261 -433 290 -425 ct 
318 -417 343 -404 363 -386 ct 384 -369 400 -346 411 -319 ct 422 -293 428 -261 428 -223 ct 
p
369 -223 m  369 -253 364 -278 356 -299 ct 347 -320 336 -337 320 -351 ct 305 -364 287 -374 265 -381 ct 
244 -387 221 -390 195 -390 ct 111 -390 l  111 -47 l  209 -47 l  232 -47 253 -51 272 -59 ct 
292 -66 309 -77 323 -92 ct 337 -107 349 -125 357 -147 ct 365 -169 369 -194 369 -223 ct 
p ef
pom
8083 21288 m  6775 19011 l  8375 18979 l  8083 21288 l  pc
12397 17698 m  11597 17698 l  11597 16998 l  13197 16998 l  13197 17698 l 
12397 17698 l  pc
12497 18398 m  12724 18398 12897 19069 12897 19948 ct 12897 20827 12724 21498 12497 21498 ct 
12270 21498 12097 20827 12097 19948 ct 12097 19069 12270 18398 12497 18398 ct 
pc
pum
9073 11250 t
390 -123 m  390 -101 386 -82 377 -67 ct 368 -51 357 -38 342 -28 ct 327 -19 310 -11 291 -7 ct 
271 -2 251 0 229 0 ct 52 0 l  52 -437 l  211 -437 l  235 -437 257 -435 276 -431 ct 
295 -427 311 -421 324 -412 ct 337 -404 347 -393 354 -379 ct 361 -366 365 -350 365 -331 ct 
365 -319 363 -307 360 -297 ct 356 -286 351 -276 344 -267 ct 337 -258 328 -251 318 -245 ct 
308 -238 295 -234 282 -230 ct 299 -228 315 -224 328 -218 ct 342 -212 353 -205 362 -195 ct 
371 -186 378 -175 383 -163 ct 388 -151 390 -137 390 -123 ct p
305 -324 m  305 -348 297 -365 281 -375 ct 265 -385 241 -390 211 -390 ct 111 -390 l 
111 -251 l  211 -251 l  228 -251 243 -253 255 -256 ct 267 -260 277 -265 284 -271 ct 
291 -277 297 -285 300 -294 ct 303 -303 305 -313 305 -324 ct p
330 -128 m  330 -142 328 -153 323 -163 ct 318 -173 310 -181 301 -187 ct 291 -193 280 -198 267 -201 ct 
253 -204 238 -205 222 -205 ct 111 -205 l  111 -47 l  226 -47 l  241 -47 255 -49 268 -51 ct 
281 -54 292 -58 301 -64 ct 310 -70 317 -79 322 -89 ct 328 -99 330 -112 330 -128 ct 
p ef
pom
pum
12138 10950 t
246 -396 m  221 -396 199 -391 180 -383 ct 161 -375 145 -363 132 -348 ct 119 -332 109 -314 102 -293 ct 
96 -271 92 -247 92 -221 ct 92 -195 96 -171 103 -149 ct 110 -127 120 -108 134 -92 ct 
147 -77 163 -64 183 -56 ct 202 -47 224 -43 248 -43 ct 265 -43 280 -45 294 -49 ct 
308 -54 321 -60 332 -68 ct 343 -76 354 -86 362 -97 ct 371 -108 379 -120 386 -134 ct 
434 -109 l  427 -93 417 -78 405 -64 ct 394 -50 380 -38 364 -27 ct 349 -17 331 -9 311 -3 ct 
292 3 270 6 245 6 ct 210 6 179 0 152 -11 ct 126 -22 104 -38 86 -58 ct 68 -78 54 -102 46 -130 ct 
37 -158 32 -188 32 -221 ct 32 -255 37 -286 46 -313 ct 56 -341 70 -364 88 -384 ct 
106 -403 128 -418 154 -428 ct 181 -439 211 -444 245 -444 ct 291 -444 330 -435 362 -417 ct 
393 -398 416 -371 430 -336 ct 374 -317 l  370 -327 365 -337 358 -347 ct 350 -356 342 -364 331 -372 ct 
321 -379 308 -385 294 -389 ct 280 -393 264 -396 246 -396 ct p ef
pom
pum
7498 19988 t
52 0 m  52 -437 l  384 -437 l  384 -389 l  111 -389 l  111 -249 l  365 -249 l 
365 -201 l  111 -201 l  111 -48 l  396 -48 l  396 0 l  52 0 l  p ef
pom
pum
12206 17588 t
111 -389 m  111 -226 l  355 -226 l  355 -177 l  111 -177 l  111 0 l  52 0 l 
52 -437 l  362 -437 l  362 -389 l  111 -389 l  p ef
pom
pum
12200 20088 t
32 -221 m  32 -255 37 -286 46 -313 ct 55 -341 69 -364 87 -384 ct 105 -403 128 -418 155 -428 ct 
182 -439 214 -444 249 -444 ct 276 -444 300 -442 320 -437 ct 340 -432 358 -425 373 -416 ct 
388 -407 400 -397 411 -384 ct 421 -371 430 -357 437 -341 ct 380 -324 l  375 -335 369 -345 361 -354 ct 
354 -362 344 -370 334 -376 ct 323 -382 310 -387 296 -390 ct 282 -394 266 -396 248 -396 ct 
221 -396 198 -391 179 -383 ct 159 -375 143 -363 130 -348 ct 117 -332 108 -314 102 -293 ct 
95 -271 92 -247 92 -221 ct 92 -195 96 -171 102 -149 ct 109 -127 119 -108 133 -92 ct 
146 -76 163 -64 183 -55 ct 203 -46 226 -42 252 -42 ct 269 -42 285 -44 300 -46 ct 
314 -49 327 -53 339 -58 ct 350 -62 361 -68 370 -73 ct 378 -79 386 -85 392 -91 ct 
392 -169 l  261 -169 l  261 -219 l  446 -219 l  446 -68 l  437 -58 425 -49 412 -40 ct 
399 -31 384 -23 368 -16 ct 352 -9 334 -4 314 0 ct 295 4 274 6 252 6 ct 215 6 183 0 156 -11 ct 
128 -22 105 -38 87 -58 ct 69 -78 55 -102 46 -130 ct 37 -158 32 -188 32 -221 ct 
p ef
pom
[ 53.09149 34.2265 ] 0 ld
13597 16998 m  5298 16998 l  ps
10597 9299 m  10797 16998 l  ps
7298 9299 m  7398 16998 l  ps
10697 12799 m  13597 12799 l  ps
11597 16998 m  11697 21998 l  ps
pum
7145 9150 t
32 0 m  32 -39 l  42 -64 55 -85 71 -104 ct 86 -122 102 -139 118 -154 ct 135 -169 152 -183 168 -196 ct 
185 -208 199 -221 213 -234 ct 226 -247 237 -260 245 -274 ct 253 -289 257 -304 257 -322 ct 
257 -335 255 -346 251 -355 ct 248 -364 242 -372 235 -379 ct 228 -385 220 -390 210 -393 ct 
200 -396 189 -398 177 -398 ct 166 -398 156 -396 146 -393 ct 136 -390 127 -386 120 -379 ct 
112 -373 106 -365 101 -356 ct 96 -347 93 -336 91 -324 ct 34 -329 l  36 -345 41 -360 47 -374 ct 
54 -388 64 -400 76 -410 ct 88 -421 102 -429 119 -435 ct 136 -441 155 -444 177 -444 ct 
199 -444 218 -441 235 -436 ct 252 -431 267 -423 278 -413 ct 290 -403 299 -391 305 -376 ct 
311 -361 314 -344 314 -324 ct 314 -309 312 -295 307 -282 ct 301 -269 294 -256 285 -244 ct 
277 -232 266 -221 255 -210 ct 243 -198 231 -187 219 -177 ct 206 -166 193 -156 180 -145 ct 
168 -135 156 -124 144 -114 ct 133 -103 123 -92 114 -81 ct 105 -71 98 -59 93 -47 ct 
321 -47 l  321 0 l  32 0 l  p ef
pom
pum
13797 17188 t
48 0 m  48 -47 l  160 -47 l  160 -384 l  61 -314 l  61 -366 l  164 -438 l 
216 -438 l  216 -47 l  322 -47 l  322 0 l  48 0 l  p ef
pom
pum
10398 9188 t
325 -121 m  325 -101 322 -83 315 -67 ct 309 -52 299 -38 287 -27 ct 274 -17 259 -8 240 -3 ct 
222 3 201 6 177 6 ct 150 6 127 3 109 -4 ct 90 -11 75 -20 63 -31 ct 51 -42 42 -54 36 -69 ct 
30 -83 26 -97 24 -113 ct 82 -118 l  84 -106 87 -96 91 -86 ct 95 -77 102 -68 109 -62 ct 
117 -55 126 -50 137 -46 ct 149 -42 162 -40 177 -40 ct 205 -40 227 -47 243 -61 ct 
259 -75 267 -96 267 -123 ct 267 -139 264 -152 257 -162 ct 249 -172 241 -179 230 -185 ct 
219 -190 208 -194 195 -196 ct 183 -198 171 -199 161 -199 ct 129 -199 l  129 -247 l 
159 -247 l  170 -247 181 -248 192 -250 ct 204 -252 214 -256 223 -262 ct 233 -268 241 -275 247 -285 ct 
253 -295 256 -307 256 -322 ct 256 -346 249 -364 235 -378 ct 221 -391 201 -398 174 -398 ct 
149 -398 129 -392 114 -379 ct 99 -367 90 -349 88 -326 ct 32 -330 l  34 -349 39 -366 47 -380 ct 
56 -395 66 -407 79 -416 ct 92 -425 106 -432 122 -437 ct 139 -442 156 -444 175 -444 ct 
199 -444 220 -441 238 -435 ct 255 -429 269 -420 281 -410 ct 292 -400 300 -387 305 -373 ct 
311 -359 313 -344 313 -328 ct 313 -315 311 -303 308 -292 ct 304 -281 299 -271 291 -262 ct 
284 -253 275 -246 263 -239 ct 252 -233 238 -228 222 -225 ct 222 -223 l  239 -222 255 -218 268 -211 ct 
281 -205 291 -198 300 -189 ct 308 -180 315 -169 319 -158 ct 323 -146 325 -134 325 -121 ct 
p ef
pom
pum
13797 13050 t
273 -99 m  273 0 l  220 0 l  220 -99 l  15 -99 l  15 -142 l  215 -438 l 
273 -438 l  273 -143 l  335 -143 l  335 -99 l  273 -99 l  p
220 -374 m  220 -373 219 -371 217 -368 ct 216 -365 214 -362 212 -358 ct 210 -355 208 -351 205 -347 ct 
203 -343 201 -340 200 -338 ct 88 -172 l  87 -171 85 -168 83 -166 ct 81 -163 79 -160 77 -158 ct 
75 -155 73 -152 71 -149 ct 69 -147 67 -145 66 -143 ct 220 -143 l  220 -374 l 
p ef
pom
pum
11544 22687 t
326 -143 m  326 -121 323 -101 317 -82 ct 310 -64 300 -49 287 -35 ct 274 -22 258 -12 239 -5 ct 
219 2 197 6 171 6 ct 149 6 129 3 111 -2 ct 94 -7 80 -15 68 -24 ct 56 -34 47 -45 40 -57 ct 
33 -70 28 -83 25 -98 ct 82 -104 l  84 -96 87 -88 91 -80 ct 96 -73 101 -66 108 -60 ct 
116 -54 124 -49 135 -45 ct 145 -41 158 -40 173 -40 ct 187 -40 200 -42 212 -46 ct 
224 -51 234 -57 242 -66 ct 251 -75 257 -85 262 -98 ct 266 -111 269 -125 269 -141 ct 
269 -155 266 -167 262 -178 ct 258 -190 251 -199 243 -207 ct 235 -216 225 -222 214 -227 ct 
202 -231 189 -233 174 -233 ct 165 -233 156 -233 148 -231 ct 140 -229 133 -227 126 -224 ct 
120 -221 114 -218 108 -214 ct 103 -210 97 -206 93 -202 ct 38 -202 l  53 -437 l 
301 -437 l  301 -390 l  104 -390 l  95 -251 l  105 -259 118 -265 132 -271 ct 
147 -276 165 -279 185 -279 ct 207 -279 227 -276 244 -269 ct 261 -262 276 -253 288 -241 ct 
301 -229 310 -215 317 -198 ct 323 -181 326 -163 326 -143 ct p ef
pom
0 14600 t 
pom
count op_count sub {pop} repeat countdictstack dict_count sub {end} repeat b4_inc_state restore
%%PageTrailer
%%Trailer
%%EOF
