%!PS-Adobe-3.0 EPSF-3.0 
%%BoundingBox: 0 0 198 142
%%Pages: 0
%%Creator: LibreOffice 4.3
%%Title: none
%%CreationDate: none
%%LanguageLevel: 2
%%EndComments
%%BeginProlog
%%BeginResource: procset SDRes-Prolog 1.0 0
/b4_inc_state save def
/dict_count countdictstack def
/op_count count 1 sub def
userdict begin
0 setgray 0 setlinecap 1 setlinewidth 0 setlinejoin 10 setmiterlimit[] 0 setdash newpath
/languagelevel where {pop languagelevel 1 ne {false setstrokeadjust false setoverprint} if} if
/bdef {bind def} bind def
/c {setgray} bdef
/l {neg lineto} bdef
/rl {neg rlineto} bdef
/lc {setlinecap} bdef
/lj {setlinejoin} bdef
/lw {setlinewidth} bdef
/ml {setmiterlimit} bdef
/ld {setdash} bdef
/m {neg moveto} bdef
/ct {6 2 roll neg 6 2 roll neg 6 2 roll neg curveto} bdef
/r {rotate} bdef
/t {neg translate} bdef
/s {scale} bdef
/sw {show} bdef
/gs {gsave} bdef
/gr {grestore} bdef
/f {findfont dup length dict begin
{1 index /FID ne {def} {pop pop} ifelse} forall /Encoding ISOLatin1Encoding def
currentdict end /NFont exch definefont pop /NFont findfont} bdef
/p {closepath} bdef
/sf {scalefont setfont} bdef
/ef {eofill}bdef
/pc {closepath stroke}bdef
/ps {stroke}bdef
/pum {matrix currentmatrix}bdef
/pom {setmatrix}bdef
/bs {/aString exch def /nXOfs exch def /nWidth exch def currentpoint nXOfs 0 rmoveto pum nWidth aString stringwidth pop div 1 scale aString show pom moveto} bdef
%%EndResource
%%EndProlog
%%BeginSetup
%%EndSetup
%%Page: 1 1
%%BeginPageSetup
%%EndPageSetup
pum
0.02828 0.02839 s 
0 -5001 t
/tm matrix currentmatrix def
tm setmatrix
-5397 -9295 t 
1 1 s 
0 lw 1 lj 0.000 c 8897 10295 m  8397 10295 l  8397 9296 l  9397 9296 l  9397 10295 l 
8897 10295 l  pc
pum
8808 10017 t
172 -2 m  163 0 155 2 146 3 ct 137 4 127 5 115 5 ct 71 5 48 -20 48 -71 ct 48 -295 l 
10 -295 l  10 -336 l  51 -336 l  67 -411 l  104 -411 l  104 -336 l  166 -336 l 
166 -295 l  104 -295 l  104 -83 l  104 -67 107 -56 112 -49 ct 117 -43 127 -39 140 -39 ct 
145 -39 150 -40 155 -41 ct 160 -41 166 -42 172 -44 ct 172 -2 l  p ef
pom
11896 14294 m  11396 14294 l  11396 13294 l  12396 13294 l  12396 14294 l 
11896 14294 l  pc
pum
11738 14015 t
15 0 m  15 -43 l  220 -293 l  28 -293 l  28 -336 l  283 -336 l  283 -293 l 
78 -43 l  295 -43 l  295 0 l  15 0 l  p ef
pom
5898 14294 m  5398 14294 l  5398 13294 l  6398 13294 l  6398 14294 l  5898 14294 l 
pc
pum
5739 14015 t
190 0 m  124 0 l  2 -336 l  62 -336 l  136 -117 l  137 -113 139 -107 141 -101 ct 
143 -94 145 -87 147 -80 ct 149 -73 151 -67 152 -60 ct 154 -54 156 -48 157 -44 ct 
158 -48 160 -54 162 -60 ct 164 -67 166 -73 168 -80 ct 170 -87 172 -94 174 -100 ct 
176 -107 178 -112 180 -117 ct 256 -336 l  315 -336 l  190 0 l  p ef
pom
9897 14294 m  9397 14294 l  9397 13294 l  10397 13294 l  10397 14294 l 
9897 14294 l  pc
pum
9743 14015 t
187 -1 m  179 20 171 38 163 54 ct 155 70 146 84 136 96 ct 126 107 114 116 102 122 ct 
90 128 75 131 59 131 ct 52 131 46 131 40 131 ct 34 131 27 130 21 128 ct 21 86 l 
25 87 29 88 34 88 ct 39 88 43 88 47 88 ct 63 88 78 82 92 70 ct 106 57 119 38 129 11 ct 
135 -2 l  2 -336 l  61 -336 l  132 -150 l  134 -145 136 -137 140 -128 ct 
143 -119 146 -109 149 -100 ct 152 -91 155 -83 158 -75 ct 160 -68 162 -63 162 -61 ct 
163 -63 164 -68 167 -75 ct 169 -81 172 -89 175 -97 ct 178 -105 181 -114 184 -122 ct 
187 -131 190 -138 192 -144 ct 257 -336 l  316 -336 l  187 -1 l  p ef
pom
7897 14294 m  7397 14294 l  7397 13294 l  8397 13294 l  8397 14294 l  7897 14294 l 
pc
pum
7676 14015 t
364 0 m  299 0 l  246 -217 l  244 -222 242 -229 240 -238 ct 239 -246 237 -254 235 -262 ct 
233 -271 231 -280 229 -290 ct 228 -281 226 -272 224 -262 ct 222 -255 220 -246 218 -238 ct 
216 -229 214 -222 213 -216 ct 158 0 l  93 0 l  -1 -336 l  54 -336 l  111 -108 l 
112 -103 114 -97 115 -90 ct 117 -83 118 -77 120 -70 ct 121 -62 123 -54 124 -46 ct 
126 -54 128 -62 130 -69 ct 131 -76 133 -82 135 -89 ct 136 -95 138 -101 139 -105 ct 
200 -336 l  260 -336 l  318 -105 l  320 -100 321 -94 323 -87 ct 324 -80 326 -74 327 -68 ct 
329 -61 331 -54 332 -46 ct 334 -54 336 -62 337 -69 ct 339 -76 340 -82 342 -89 ct 
343 -96 345 -102 346 -108 ct 406 -336 l  460 -336 l  364 0 l  p ef
pom
6898 12295 m  6398 12295 l  6398 11295 l  7397 11295 l  7397 12295 l  6898 12295 l 
pc
pum
6723 12016 t
97 -336 m  97 -123 l  97 -107 99 -93 101 -82 ct 103 -71 107 -62 113 -56 ct 118 -49 125 -44 134 -41 ct 
143 -39 153 -37 167 -37 ct 180 -37 192 -39 202 -44 ct 213 -49 222 -55 230 -64 ct 
237 -73 243 -84 247 -97 ct 251 -110 253 -125 253 -141 ct 253 -336 l  309 -336 l 
309 -72 l  309 -65 309 -57 309 -50 ct 309 -42 310 -35 310 -28 ct 310 -21 310 -15 310 -10 ct 
311 -5 311 -2 311 0 ct 258 0 l  258 -1 258 -4 258 -9 ct 257 -13 257 -18 257 -24 ct 
257 -30 256 -36 256 -42 ct 256 -48 256 -53 256 -58 ct 255 -58 l  250 -48 244 -39 237 -31 ct 
231 -23 223 -17 215 -11 ct 206 -6 197 -2 186 2 ct 175 4 162 6 148 6 ct 129 6 113 4 100 -1 ct 
86 -5 75 -12 66 -22 ct 58 -31 51 -44 47 -59 ct 43 -73 41 -91 41 -112 ct 41 -336 l 
97 -336 l  p ef
pom
10896 12295 m  10397 12295 l  10397 11295 l  11396 11295 l  11396 12295 l 
10896 12295 l  pc
pum
10741 12016 t
248 0 m  158 -138 l  67 0 l  7 0 l  127 -173 l  13 -336 l  74 -336 l  158 -205 l 
241 -336 l  304 -336 l  190 -173 l  311 0 l  248 0 l  p ef
pom
1 lw 8897 10296 m  8897 11795 l  7828 11795 l  ps
7398 11795 m  7848 11945 l  7848 11645 l  7398 11795 l  p ef
8897 10296 m  8897 11795 l  9967 11795 l  ps
10397 11795 m  9947 11645 l  9947 11945 l  10397 11795 l  p ef
6898 12295 m  6898 13794 l  6828 13794 l  ps
6398 13794 m  6848 13944 l  6848 13645 l  6398 13794 l  p ef
6898 12295 m  6898 13794 l  6968 13794 l  ps
7398 13794 m  6948 13645 l  6948 13944 l  7398 13794 l  p ef
10897 12295 m  10897 13794 l  10827 13794 l  ps
10397 13794 m  10847 13944 l  10847 13645 l  10397 13794 l  p ef
10897 12295 m  10897 13794 l  10967 13794 l  ps
11397 13794 m  10947 13645 l  10947 13944 l  11397 13794 l  p ef
0 lw 8897 10295 m  8397 10295 l  8397 9296 l  9397 9296 l  9397 10295 l 
8897 10295 l  pc
pum
8808 10017 t
172 -2 m  163 0 155 2 146 3 ct 137 4 127 5 115 5 ct 71 5 48 -20 48 -71 ct 48 -295 l 
10 -295 l  10 -336 l  51 -336 l  67 -411 l  104 -411 l  104 -336 l  166 -336 l 
166 -295 l  104 -295 l  104 -83 l  104 -67 107 -56 112 -49 ct 117 -43 127 -39 140 -39 ct 
145 -39 150 -40 155 -41 ct 160 -41 166 -42 172 -44 ct 172 -2 l  p ef
pom
0 5001 t 
pom
count op_count sub {pop} repeat countdictstack dict_count sub {end} repeat b4_inc_state restore
%%PageTrailer
%%Trailer
%%EOF
