%!PS-Adobe-3.0 EPSF-3.0 
%%BoundingBox: 0 0 261 119
%%Pages: 0
%%Creator: LibreOffice 4.3
%%Title: none
%%CreationDate: none
%%LanguageLevel: 2
%%EndComments
%%BeginProlog
%%BeginResource: procset SDRes-Prolog 1.0 0
/b4_inc_state save def
/dict_count countdictstack def
/op_count count 1 sub def
userdict begin
0 setgray 0 setlinecap 1 setlinewidth 0 setlinejoin 10 setmiterlimit[] 0 setdash newpath
/languagelevel where {pop languagelevel 1 ne {false setstrokeadjust false setoverprint} if} if
/bdef {bind def} bind def
/c {setgray} bdef
/l {neg lineto} bdef
/rl {neg rlineto} bdef
/lc {setlinecap} bdef
/lj {setlinejoin} bdef
/lw {setlinewidth} bdef
/ml {setmiterlimit} bdef
/ld {setdash} bdef
/m {neg moveto} bdef
/ct {6 2 roll neg 6 2 roll neg 6 2 roll neg curveto} bdef
/r {rotate} bdef
/t {neg translate} bdef
/s {scale} bdef
/sw {show} bdef
/gs {gsave} bdef
/gr {grestore} bdef
/f {findfont dup length dict begin
{1 index /FID ne {def} {pop pop} ifelse} forall /Encoding ISOLatin1Encoding def
currentdict end /NFont exch definefont pop /NFont findfont} bdef
/p {closepath} bdef
/sf {scalefont setfont} bdef
/ef {eofill}bdef
/pc {closepath stroke}bdef
/ps {stroke}bdef
/pum {matrix currentmatrix}bdef
/pom {setmatrix}bdef
/bs {/aString exch def /nXOfs exch def /nWidth exch def currentpoint nXOfs 0 rmoveto pum nWidth aString stringwidth pop div 1 scale aString show pom moveto} bdef
%%EndResource
%%EndProlog
%%BeginSetup
%%EndSetup
%%Page: 1 1
%%BeginPageSetup
%%EndPageSetup
pum
0.02836 0.02833 s 
0 -4200 t
/tm matrix currentmatrix def
tm setmatrix
-4899 -3299 t 
1 1 s 
0 lw 1 lj 0.000 c 5999 5798 m  5499 5798 l  5499 4798 l  6499 4798 l  6499 5798 l 
5999 5798 l  pc
pum
5910 5520 t
172 -2 m  163 0 155 2 146 3 ct 137 4 127 5 115 5 ct 71 5 48 -20 48 -71 ct 48 -295 l 
10 -295 l  10 -336 l  51 -336 l  67 -411 l  104 -411 l  104 -336 l  166 -336 l 
166 -295 l  104 -295 l  104 -83 l  104 -67 107 -56 112 -49 ct 117 -43 127 -39 140 -39 ct 
145 -39 150 -40 155 -41 ct 160 -41 166 -42 172 -44 ct 172 -2 l  p ef
pom
11998 5798 m  11498 5798 l  11498 4798 l  12498 4798 l  12498 5798 l  11998 5798 l 
pc
pum
11840 5520 t
15 0 m  15 -43 l  220 -293 l  28 -293 l  28 -336 l  283 -336 l  283 -293 l 
78 -43 l  295 -43 l  295 0 l  15 0 l  p ef
pom
9998 5798 m  9498 5798 l  9498 4798 l  10498 4798 l  10498 5798 l  9998 5798 l 
pc
pum
9843 5520 t
248 0 m  158 -138 l  67 0 l  7 0 l  127 -173 l  13 -336 l  74 -336 l  158 -205 l 
241 -336 l  304 -336 l  190 -173 l  311 0 l  248 0 l  p ef
pom
8999 5798 m  8499 5798 l  8499 4798 l  9498 4798 l  9498 5798 l  8999 5798 l 
pc
pum
8777 5520 t
364 0 m  299 0 l  246 -217 l  244 -222 242 -229 240 -238 ct 239 -246 237 -254 235 -262 ct 
233 -271 231 -280 229 -290 ct 228 -281 226 -272 224 -262 ct 222 -255 220 -246 218 -238 ct 
216 -229 214 -222 213 -216 ct 158 0 l  93 0 l  -1 -336 l  54 -336 l  111 -108 l 
112 -103 114 -97 115 -90 ct 117 -83 118 -77 120 -70 ct 121 -62 123 -54 124 -46 ct 
126 -54 128 -62 130 -69 ct 131 -76 133 -82 135 -89 ct 136 -95 138 -101 139 -105 ct 
200 -336 l  260 -336 l  318 -105 l  320 -100 321 -94 323 -87 ct 324 -80 326 -74 327 -68 ct 
329 -61 331 -54 332 -46 ct 334 -54 336 -62 337 -69 ct 339 -76 340 -82 342 -89 ct 
343 -96 345 -102 346 -108 ct 406 -336 l  460 -336 l  364 0 l  p ef
pom
7999 5798 m  7499 5798 l  7499 4798 l  8499 4798 l  8499 5798 l  7999 5798 l 
pc
pum
7840 5520 t
190 0 m  124 0 l  2 -336 l  62 -336 l  136 -117 l  137 -113 139 -107 141 -101 ct 
143 -94 145 -87 147 -80 ct 149 -73 151 -67 152 -60 ct 154 -54 156 -48 157 -44 ct 
158 -48 160 -54 162 -60 ct 164 -67 166 -73 168 -80 ct 170 -87 172 -94 174 -100 ct 
176 -107 178 -112 180 -117 ct 256 -336 l  315 -336 l  190 0 l  p ef
pom
6999 5798 m  6499 5798 l  6499 4798 l  7499 4798 l  7499 5798 l  6999 5798 l 
pc
pum
6824 5520 t
97 -336 m  97 -123 l  97 -107 99 -93 101 -82 ct 103 -71 107 -62 113 -56 ct 118 -49 125 -44 134 -41 ct 
143 -39 153 -37 167 -37 ct 180 -37 192 -39 202 -44 ct 213 -49 222 -55 230 -64 ct 
237 -73 243 -84 247 -97 ct 251 -110 253 -125 253 -141 ct 253 -336 l  309 -336 l 
309 -72 l  309 -65 309 -57 309 -50 ct 309 -42 310 -35 310 -28 ct 310 -21 310 -15 310 -10 ct 
311 -5 311 -2 311 0 ct 258 0 l  258 -1 258 -4 258 -9 ct 257 -13 257 -18 257 -24 ct 
257 -30 256 -36 256 -42 ct 256 -48 256 -53 256 -58 ct 255 -58 l  250 -48 244 -39 237 -31 ct 
231 -23 223 -17 215 -11 ct 206 -6 197 -2 186 2 ct 175 4 162 6 148 6 ct 129 6 113 4 100 -1 ct 
86 -5 75 -12 66 -22 ct 58 -31 51 -44 47 -59 ct 43 -73 41 -91 41 -112 ct 41 -336 l 
97 -336 l  p ef
pom
1 lw 5899 4799 m  6399 4299 l  6669 4524 l  ps
6999 4799 m  6749 4396 l  6557 4626 l  6999 4799 l  p ef
6999 4799 m  7499 4299 l  7769 4524 l  ps
8099 4799 m  7849 4396 l  7657 4626 l  8099 4799 l  p ef
9899 4799 m  10399 4299 l  10669 4524 l  ps
10999 4799 m  10749 4396 l  10557 4626 l  10999 4799 l  p ef
0 lw 10998 5798 m  10498 5798 l  10498 4798 l  11498 4798 l  11498 5798 l 
10998 5798 l  pc
1 lw 5999 5799 m  5999 6498 l  9749 6498 l  9749 6229 l  ps
9749 5799 m  9599 6249 l  9899 6249 l  9749 5799 l  p ef
6999 5799 m  6999 6300 l  8999 6300 l  8999 6229 l  ps
8999 5799 m  8849 6249 l  9149 6249 l  8999 5799 l  p ef
10249 5799 m  10249 6300 l  11999 6300 l  11999 6229 l  ps
11999 5799 m  11849 6249 l  12149 6249 l  11999 5799 l  p ef
pum
5583 3902 t
43 0 m  43 -365 l  93 -365 l  93 -40 l  277 -40 l  277 0 l  43 0 l  p ef
367 -130 m  367 -116 369 -102 372 -90 ct 375 -77 379 -67 386 -58 ct 392 -49 400 -42 410 -37 ct 
420 -32 432 -30 445 -30 ct 465 -30 482 -34 494 -42 ct 506 -50 514 -60 518 -73 ct 
559 -61 l  556 -53 552 -46 547 -38 ct 542 -30 535 -23 526 -17 ct 517 -10 506 -5 493 -1 ct 
480 3 464 5 445 5 ct 404 5 373 -7 351 -32 ct 329 -57 318 -93 318 -142 ct 318 -168 322 -190 328 -208 ct 
335 -227 344 -241 355 -253 ct 367 -264 380 -272 395 -277 ct 410 -282 426 -285 443 -285 ct 
467 -285 487 -281 502 -274 ct 518 -266 531 -256 540 -242 ct 550 -229 557 -213 561 -195 ct 
565 -177 567 -158 567 -137 ct 567 -130 l  367 -130 l  p
519 -166 m  516 -195 509 -217 496 -230 ct 484 -244 466 -251 443 -251 ct 435 -251 427 -249 418 -247 ct 
410 -244 402 -240 395 -234 ct 387 -227 381 -219 376 -208 ct 371 -197 369 -183 368 -166 ct 
519 -166 l  p ef
686 -247 m  686 -1 l  640 -1 l  640 -247 l  600 -247 l  600 -281 l  640 -281 l 
640 -312 l  640 -322 641 -332 643 -341 ct 644 -349 648 -357 653 -363 ct 658 -370 665 -375 674 -378 ct 
683 -382 694 -384 708 -384 ct 713 -384 719 -384 725 -383 ct 731 -383 736 -382 741 -381 ct 
741 -345 l  738 -346 734 -346 731 -347 ct 727 -347 723 -348 720 -348 ct 713 -348 708 -347 703 -345 ct 
699 -343 695 -340 693 -337 ct 690 -333 689 -329 688 -324 ct 687 -318 686 -313 686 -306 ct 
686 -281 l  741 -281 l  741 -247 l  686 -247 l  p ef
884 -2 m  877 0 870 1 863 2 ct 855 3 847 4 837 4 ct 800 4 781 -17 781 -59 ct 781 -246 l 
749 -246 l  749 -280 l  783 -280 l  797 -343 l  828 -343 l  828 -280 l 
879 -280 l  879 -246 l  828 -246 l  828 -69 l  828 -56 830 -47 834 -41 ct 
839 -36 846 -33 857 -33 ct 862 -33 866 -33 870 -34 ct 875 -35 879 -36 884 -37 ct 
884 -2 l  p ef
1108 -141 m  1108 -125 1109 -111 1112 -97 ct 1114 -84 1118 -72 1123 -62 ct 1129 -53 1136 -45 1145 -40 ct 
1154 -34 1165 -32 1179 -32 ct 1195 -32 1209 -36 1220 -45 ct 1231 -53 1238 -67 1241 -85 ct 
1288 -85 l  1286 -73 1283 -62 1277 -51 ct 1272 -40 1265 -31 1256 -22 ct 1248 -14 1237 -7 1224 -2 ct 
1211 2 1197 5 1180 5 ct 1158 5 1139 1 1124 -6 ct 1109 -14 1096 -24 1087 -37 ct 
1077 -50 1070 -65 1066 -83 ct 1062 -100 1059 -120 1059 -140 ct 1059 -159 1061 -176 1064 -190 ct 
1067 -204 1072 -217 1077 -228 ct 1083 -239 1089 -248 1097 -255 ct 1105 -262 1113 -268 1122 -272 ct 
1130 -277 1140 -280 1150 -282 ct 1159 -284 1169 -285 1179 -285 ct 1195 -285 1209 -283 1221 -279 ct 
1233 -274 1244 -268 1253 -261 ct 1262 -253 1269 -245 1274 -234 ct 1280 -224 1284 -213 1286 -202 ct 
1238 -198 l  1236 -213 1230 -226 1220 -235 ct 1210 -244 1196 -249 1178 -249 ct 
1165 -249 1154 -246 1145 -242 ct 1136 -238 1129 -231 1123 -222 ct 1118 -213 1114 -202 1112 -189 ct 
1109 -175 1108 -159 1108 -141 ct p ef
1386 -232 m  1391 -241 1397 -250 1403 -256 ct 1409 -263 1415 -268 1423 -273 ct 
1430 -277 1438 -280 1446 -282 ct 1455 -284 1465 -285 1475 -285 ct 1493 -285 1508 -283 1519 -278 ct 
1531 -273 1540 -266 1546 -257 ct 1553 -249 1558 -238 1560 -226 ct 1563 -214 1564 -201 1564 -187 ct 
1564 0 l  1517 0 l  1517 -177 l  1517 -189 1516 -200 1515 -209 ct 1513 -218 1511 -225 1507 -231 ct 
1502 -237 1497 -242 1489 -245 ct 1481 -248 1472 -249 1460 -249 ct 1448 -249 1439 -247 1430 -243 ct 
1421 -239 1413 -234 1407 -226 ct 1401 -219 1396 -210 1392 -200 ct 1389 -190 1387 -178 1387 -165 ct 
1387 0 l  1341 0 l  1341 -384 l  1387 -384 l  1387 -284 l  1387 -278 1387 -273 1387 -267 ct 
1387 -261 1387 -256 1386 -251 ct 1386 -246 1386 -242 1386 -239 ct 1385 -236 1385 -233 1385 -232 ct 
1386 -232 l  p ef
1635 -340 m  1635 -384 l  1682 -384 l  1682 -340 l  1635 -340 l  p
1635 0 m  1635 -280 l  1682 -280 l  1682 0 l  1635 0 l  p ef
1755 0 m  1755 -384 l  1801 -384 l  1801 0 l  1755 0 l  p ef
2049 -45 m  2040 -27 2029 -14 2015 -7 ct 2001 1 1983 5 1962 5 ct 1927 5 1901 -7 1884 -31 ct 
1868 -55 1859 -91 1859 -139 ct 1859 -237 1893 -285 1962 -285 ct 1983 -285 2001 -282 2015 -274 ct 
2029 -266 2040 -254 2049 -237 ct 2050 -237 l  2050 -238 2050 -241 2049 -245 ct 
2049 -249 2049 -252 2049 -257 ct 2049 -261 2049 -264 2049 -268 ct 2049 -272 2049 -274 2049 -276 ct 
2049 -384 l  2096 -384 l  2096 -58 l  2096 -51 2096 -45 2096 -38 ct 2096 -32 2096 -27 2096 -21 ct 
2096 -16 2096 -12 2097 -8 ct 2097 -4 2097 -2 2097 0 ct 2053 0 l  2052 -2 2052 -4 2052 -8 ct 
2052 -11 2051 -14 2051 -19 ct 2051 -23 2051 -27 2050 -32 ct 2050 -36 2050 -41 2050 -45 ct 
2049 -45 l  p
1908 -140 m  1908 -121 1909 -105 1912 -91 ct 1914 -77 1918 -66 1923 -57 ct 1929 -48 1935 -41 1944 -37 ct 
1952 -33 1962 -31 1974 -31 ct 1986 -31 1997 -33 2006 -37 ct 2016 -41 2024 -47 2030 -56 ct 
2036 -65 2041 -77 2044 -91 ct 2047 -105 2049 -123 2049 -144 ct 2049 -163 2047 -180 2044 -194 ct 
2041 -208 2036 -219 2030 -227 ct 2023 -236 2016 -242 2006 -245 ct 1997 -249 1986 -251 1974 -251 ct 
1963 -251 1953 -249 1945 -245 ct 1937 -241 1930 -235 1924 -226 ct 1919 -217 1915 -206 1912 -192 ct 
1909 -178 1908 -160 1908 -140 ct p ef
2494 -45 m  2485 -27 2474 -14 2460 -7 ct 2446 1 2428 5 2407 5 ct 2372 5 2346 -7 2329 -31 ct 
2313 -55 2304 -91 2304 -139 ct 2304 -237 2338 -285 2407 -285 ct 2428 -285 2446 -282 2460 -274 ct 
2474 -266 2485 -254 2494 -237 ct 2495 -237 l  2495 -238 2495 -241 2494 -245 ct 
2494 -249 2494 -252 2494 -257 ct 2494 -261 2494 -264 2494 -268 ct 2494 -272 2494 -274 2494 -276 ct 
2494 -384 l  2541 -384 l  2541 -58 l  2541 -51 2541 -45 2541 -38 ct 2541 -32 2541 -27 2541 -21 ct 
2541 -16 2541 -12 2542 -8 ct 2542 -4 2542 -2 2542 0 ct 2498 0 l  2497 -2 2497 -4 2497 -8 ct 
2497 -11 2496 -14 2496 -19 ct 2496 -23 2496 -27 2495 -32 ct 2495 -36 2495 -41 2495 -45 ct 
2494 -45 l  p
2353 -140 m  2353 -121 2354 -105 2357 -91 ct 2359 -77 2363 -66 2368 -57 ct 2374 -48 2380 -41 2389 -37 ct 
2397 -33 2407 -31 2419 -31 ct 2431 -31 2442 -33 2451 -37 ct 2461 -41 2469 -47 2475 -56 ct 
2481 -65 2486 -77 2489 -91 ct 2492 -105 2494 -123 2494 -144 ct 2494 -163 2492 -180 2489 -194 ct 
2486 -208 2481 -219 2475 -227 ct 2468 -236 2461 -242 2451 -245 ct 2442 -249 2431 -251 2419 -251 ct 
2408 -251 2398 -249 2390 -245 ct 2382 -241 2375 -235 2369 -226 ct 2364 -217 2360 -206 2357 -192 ct 
2354 -178 2353 -160 2353 -140 ct p ef
2613 -340 m  2613 -384 l  2660 -384 l  2660 -340 l  2613 -340 l  p
2613 0 m  2613 -280 l  2660 -280 l  2660 0 l  2613 0 l  p ef
2734 0 m  2734 -215 l  2734 -221 2734 -227 2734 -233 ct 2733 -239 2733 -245 2733 -250 ct 
2733 -256 2733 -261 2733 -266 ct 2732 -271 2732 -276 2732 -280 ct 2776 -280 l 
2776 -276 2776 -271 2777 -266 ct 2777 -261 2777 -256 2777 -251 ct 2778 -245 2778 -240 2778 -235 ct 
2778 -230 2778 -226 2778 -223 ct 2779 -223 l  2782 -233 2786 -243 2790 -250 ct 
2793 -258 2798 -265 2803 -270 ct 2808 -275 2814 -279 2820 -281 ct 2827 -284 2836 -285 2846 -285 ct 
2849 -285 2853 -285 2856 -284 ct 2860 -284 2862 -283 2864 -282 ct 2864 -240 l 
2861 -241 2858 -241 2854 -242 ct 2849 -242 2845 -242 2840 -242 ct 2829 -242 2820 -240 2812 -235 ct 
2805 -230 2799 -224 2794 -215 ct 2789 -207 2786 -196 2784 -185 ct 2781 -173 2780 -160 2780 -146 ct 
2780 0 l  2734 0 l  p ef
2945 -130 m  2945 -116 2947 -102 2950 -90 ct 2953 -77 2957 -67 2964 -58 ct 2970 -49 2978 -42 2988 -37 ct 
2998 -32 3010 -30 3023 -30 ct 3043 -30 3060 -34 3072 -42 ct 3084 -50 3092 -60 3096 -73 ct 
3137 -61 l  3134 -53 3130 -46 3125 -38 ct 3120 -30 3113 -23 3104 -17 ct 3095 -10 3084 -5 3071 -1 ct 
3058 3 3042 5 3023 5 ct 2982 5 2951 -7 2929 -32 ct 2907 -57 2896 -93 2896 -142 ct 
2896 -168 2900 -190 2906 -208 ct 2913 -227 2922 -241 2933 -253 ct 2945 -264 2958 -272 2973 -277 ct 
2988 -282 3004 -285 3021 -285 ct 3045 -285 3065 -281 3080 -274 ct 3096 -266 3109 -256 3118 -242 ct 
3128 -229 3135 -213 3139 -195 ct 3143 -177 3145 -158 3145 -137 ct 3145 -130 l 
2945 -130 l  p
3097 -166 m  3094 -195 3087 -217 3074 -230 ct 3062 -244 3044 -251 3021 -251 ct 
3013 -251 3005 -249 2996 -247 ct 2988 -244 2980 -240 2973 -234 ct 2965 -227 2959 -219 2954 -208 ct 
2949 -197 2947 -183 2946 -166 ct 3097 -166 l  p ef
3242 -141 m  3242 -125 3243 -111 3246 -97 ct 3248 -84 3252 -72 3257 -62 ct 3263 -53 3270 -45 3279 -40 ct 
3288 -34 3299 -32 3313 -32 ct 3329 -32 3343 -36 3354 -45 ct 3365 -53 3372 -67 3375 -85 ct 
3422 -85 l  3420 -73 3417 -62 3411 -51 ct 3406 -40 3399 -31 3390 -22 ct 3382 -14 3371 -7 3358 -2 ct 
3345 2 3331 5 3314 5 ct 3292 5 3273 1 3258 -6 ct 3243 -14 3230 -24 3221 -37 ct 
3211 -50 3204 -65 3200 -83 ct 3196 -100 3193 -120 3193 -140 ct 3193 -159 3195 -176 3198 -190 ct 
3201 -204 3206 -217 3211 -228 ct 3217 -239 3223 -248 3231 -255 ct 3239 -262 3247 -268 3256 -272 ct 
3264 -277 3274 -280 3284 -282 ct 3293 -284 3303 -285 3313 -285 ct 3329 -285 3343 -283 3355 -279 ct 
3367 -274 3378 -268 3387 -261 ct 3396 -253 3403 -245 3408 -234 ct 3414 -224 3418 -213 3420 -202 ct 
3372 -198 l  3370 -213 3364 -226 3354 -235 ct 3344 -244 3330 -249 3312 -249 ct 
3299 -249 3288 -246 3279 -242 ct 3270 -238 3263 -231 3257 -222 ct 3252 -213 3248 -202 3246 -189 ct 
3243 -175 3242 -159 3242 -141 ct p ef
3580 -2 m  3573 0 3566 1 3559 2 ct 3551 3 3543 4 3533 4 ct 3496 4 3477 -17 3477 -59 ct 
3477 -246 l  3445 -246 l  3445 -280 l  3479 -280 l  3493 -343 l  3524 -343 l 
3524 -280 l  3575 -280 l  3575 -246 l  3524 -246 l  3524 -69 l  3524 -56 3526 -47 3530 -41 ct 
3535 -36 3542 -33 3553 -33 ct 3558 -33 3562 -33 3566 -34 ct 3571 -35 3575 -36 3580 -37 ct 
3580 -2 l  p ef
3622 0 m  3622 -384 l  3668 -384 l  3668 0 l  3622 0 l  p ef
3860 -1 m  3853 16 3847 31 3840 45 ct 3833 58 3826 70 3817 79 ct 3809 89 3799 96 3789 101 ct 
3779 106 3767 109 3753 109 ct 3747 109 3742 109 3737 109 ct 3732 109 3727 108 3721 107 ct 
3721 72 l  3725 73 3728 73 3732 73 ct 3737 73 3740 73 3743 73 ct 3757 73 3769 68 3781 58 ct 
3793 48 3803 31 3812 9 ct 3816 -2 l  3705 -280 l  3755 -280 l  3814 -125 l 
3816 -121 3818 -115 3820 -107 ct 3823 -99 3826 -91 3828 -84 ct 3831 -76 3833 -69 3835 -63 ct 
3838 -56 3839 -53 3839 -51 ct 3840 -53 3841 -57 3843 -62 ct 3845 -68 3847 -74 3850 -81 ct 
3852 -88 3855 -95 3857 -102 ct 3860 -109 3862 -115 3864 -120 ct 3918 -280 l 
3967 -280 l  3860 -1 l  p ef
4218 5 m  4190 5 4169 -2 4155 -17 ct 4141 -32 4133 -53 4133 -79 ct 4133 -97 4137 -112 4144 -124 ct 
4151 -136 4160 -145 4171 -152 ct 4183 -159 4195 -164 4210 -166 ct 4224 -169 4239 -170 4254 -170 ct 
4317 -170 l  4317 -185 l  4317 -197 4316 -207 4313 -215 ct 4311 -223 4307 -230 4302 -235 ct 
4297 -240 4291 -244 4283 -246 ct 4276 -248 4267 -250 4257 -250 ct 4248 -250 4240 -249 4233 -248 ct 
4225 -246 4219 -244 4214 -241 ct 4208 -237 4204 -233 4201 -227 ct 4198 -221 4195 -214 4194 -205 ct 
4146 -210 l  4148 -221 4151 -231 4156 -240 ct 4161 -249 4167 -257 4176 -264 ct 
4185 -271 4196 -276 4210 -279 ct 4223 -283 4239 -285 4258 -285 ct 4293 -285 4320 -277 4337 -261 ct 
4355 -245 4364 -221 4364 -191 ct 4364 -71 l  4364 -57 4366 -46 4369 -39 ct 4373 -32 4380 -29 4390 -29 ct 
4393 -29 4395 -29 4398 -29 ct 4400 -30 4403 -30 4405 -31 ct 4405 -2 l  4399 0 4394 1 4388 1 ct 
4382 2 4376 2 4369 2 ct 4361 2 4353 1 4347 -1 ct 4340 -4 4335 -7 4331 -12 ct 4327 -17 4324 -22 4322 -29 ct 
4320 -36 4319 -44 4318 -54 ct 4317 -54 l  4312 -45 4306 -37 4300 -29 ct 4295 -22 4288 -16 4280 -11 ct 
4272 -6 4263 -2 4253 1 ct 4243 4 4231 5 4218 5 ct p
4229 -30 m  4243 -30 4256 -33 4267 -38 ct 4279 -43 4288 -50 4295 -59 ct 4302 -67 4308 -76 4311 -86 ct 
4315 -96 4317 -106 4317 -115 ct 4317 -137 l  4266 -137 l  4255 -137 4244 -137 4234 -135 ct 
4223 -134 4214 -131 4207 -127 ct 4199 -122 4193 -116 4188 -108 ct 4184 -101 4181 -90 4181 -78 ct 
4181 -62 4185 -51 4194 -42 ct 4202 -34 4213 -30 4229 -30 ct p ef
4500 -247 m  4500 -1 l  4454 -1 l  4454 -247 l  4414 -247 l  4414 -281 l 
4454 -281 l  4454 -312 l  4454 -322 4455 -332 4457 -341 ct 4458 -349 4462 -357 4467 -363 ct 
4472 -370 4479 -375 4488 -378 ct 4497 -382 4508 -384 4522 -384 ct 4527 -384 4533 -384 4539 -383 ct 
4545 -383 4550 -382 4555 -381 ct 4555 -345 l  4552 -346 4548 -346 4545 -347 ct 
4541 -347 4537 -348 4534 -348 ct 4527 -348 4522 -347 4517 -345 ct 4513 -343 4509 -340 4507 -337 ct 
4504 -333 4503 -329 4502 -324 ct 4501 -318 4500 -313 4500 -306 ct 4500 -281 l 
4555 -281 l  4555 -247 l  4500 -247 l  p ef
4698 -2 m  4691 0 4684 1 4677 2 ct 4669 3 4661 4 4651 4 ct 4614 4 4595 -17 4595 -59 ct 
4595 -246 l  4563 -246 l  4563 -280 l  4597 -280 l  4611 -343 l  4642 -343 l 
4642 -280 l  4693 -280 l  4693 -246 l  4642 -246 l  4642 -69 l  4642 -56 4644 -47 4648 -41 ct 
4653 -36 4660 -33 4671 -33 ct 4676 -33 4680 -33 4684 -34 ct 4689 -35 4693 -36 4698 -37 ct 
4698 -2 l  p ef
4773 -130 m  4773 -116 4775 -102 4778 -90 ct 4781 -77 4785 -67 4792 -58 ct 4798 -49 4806 -42 4816 -37 ct 
4826 -32 4838 -30 4851 -30 ct 4871 -30 4888 -34 4900 -42 ct 4912 -50 4920 -60 4924 -73 ct 
4965 -61 l  4962 -53 4958 -46 4953 -38 ct 4948 -30 4941 -23 4932 -17 ct 4923 -10 4912 -5 4899 -1 ct 
4886 3 4870 5 4851 5 ct 4810 5 4779 -7 4757 -32 ct 4735 -57 4724 -93 4724 -142 ct 
4724 -168 4728 -190 4734 -208 ct 4741 -227 4750 -241 4761 -253 ct 4773 -264 4786 -272 4801 -277 ct 
4816 -282 4832 -285 4849 -285 ct 4873 -285 4893 -281 4908 -274 ct 4924 -266 4937 -256 4946 -242 ct 
4956 -229 4963 -213 4967 -195 ct 4971 -177 4973 -158 4973 -137 ct 4973 -130 l 
4773 -130 l  p
4925 -166 m  4922 -195 4915 -217 4902 -230 ct 4890 -244 4872 -251 4849 -251 ct 
4841 -251 4833 -249 4824 -247 ct 4816 -244 4808 -240 4801 -234 ct 4793 -227 4787 -219 4782 -208 ct 
4777 -197 4775 -183 4774 -166 ct 4925 -166 l  p ef
5036 0 m  5036 -215 l  5036 -221 5036 -227 5036 -233 ct 5035 -239 5035 -245 5035 -250 ct 
5035 -256 5035 -261 5035 -266 ct 5034 -271 5034 -276 5034 -280 ct 5078 -280 l 
5078 -276 5078 -271 5079 -266 ct 5079 -261 5079 -256 5079 -251 ct 5080 -245 5080 -240 5080 -235 ct 
5080 -230 5080 -226 5080 -223 ct 5081 -223 l  5084 -233 5088 -243 5092 -250 ct 
5095 -258 5100 -265 5105 -270 ct 5110 -275 5116 -279 5122 -281 ct 5129 -284 5138 -285 5148 -285 ct 
5151 -285 5155 -285 5158 -284 ct 5162 -284 5164 -283 5166 -282 ct 5166 -240 l 
5163 -241 5160 -241 5156 -242 ct 5151 -242 5147 -242 5142 -242 ct 5131 -242 5122 -240 5114 -235 ct 
5107 -230 5101 -224 5096 -215 ct 5091 -207 5088 -196 5086 -185 ct 5083 -173 5082 -160 5082 -146 ct 
5082 0 l  5036 0 l  p ef
5597 -141 m  5597 -120 5595 -100 5592 -82 ct 5588 -64 5583 -49 5575 -36 ct 5567 -23 5556 -13 5543 -6 ct 
5530 2 5513 5 5494 5 ct 5474 5 5457 2 5442 -6 ct 5427 -14 5415 -26 5407 -43 ct 
5406 -43 l  5406 -43 5406 -41 5406 -39 ct 5407 -36 5407 -32 5407 -28 ct 5407 -24 5407 -20 5407 -14 ct 
5407 -9 5407 -4 5407 1 ct 5407 110 l  5361 110 l  5361 -223 l  5361 -229 5361 -236 5361 -242 ct 
5360 -248 5360 -254 5360 -259 ct 5360 -264 5360 -268 5360 -272 ct 5359 -276 5359 -278 5359 -280 ct 
5404 -280 l  5404 -279 5404 -277 5405 -274 ct 5405 -271 5405 -268 5405 -263 ct 
5406 -259 5406 -254 5406 -249 ct 5407 -244 5407 -239 5407 -235 ct 5408 -235 l 
5412 -244 5417 -252 5422 -258 ct 5428 -264 5434 -269 5441 -273 ct 5448 -277 5456 -280 5465 -282 ct 
5474 -284 5483 -285 5494 -285 ct 5513 -285 5530 -282 5543 -275 ct 5556 -268 5567 -258 5575 -245 ct 
5583 -233 5588 -218 5592 -200 ct 5595 -182 5597 -163 5597 -141 ct p
5548 -140 m  5548 -157 5547 -173 5545 -186 ct 5543 -200 5539 -211 5534 -221 ct 
5529 -230 5523 -237 5514 -242 ct 5506 -247 5495 -249 5482 -249 ct 5472 -249 5462 -248 5453 -245 ct 
5444 -242 5436 -236 5429 -228 ct 5422 -219 5417 -208 5413 -193 ct 5409 -179 5407 -160 5407 -137 ct 
5407 -117 5409 -100 5412 -86 ct 5415 -72 5420 -61 5426 -53 ct 5433 -44 5440 -38 5450 -35 ct 
5459 -31 5470 -29 5482 -29 ct 5495 -29 5505 -32 5514 -37 ct 5522 -42 5529 -49 5534 -58 ct 
5539 -68 5543 -79 5545 -93 ct 5547 -107 5548 -123 5548 -140 ct p ef
5728 5 m  5700 5 5679 -2 5665 -17 ct 5651 -32 5643 -53 5643 -79 ct 5643 -97 5647 -112 5654 -124 ct 
5661 -136 5670 -145 5681 -152 ct 5693 -159 5705 -164 5720 -166 ct 5734 -169 5749 -170 5764 -170 ct 
5827 -170 l  5827 -185 l  5827 -197 5826 -207 5823 -215 ct 5821 -223 5817 -230 5812 -235 ct 
5807 -240 5801 -244 5793 -246 ct 5786 -248 5777 -250 5767 -250 ct 5758 -250 5750 -249 5743 -248 ct 
5735 -246 5729 -244 5724 -241 ct 5718 -237 5714 -233 5711 -227 ct 5708 -221 5705 -214 5704 -205 ct 
5656 -210 l  5658 -221 5661 -231 5666 -240 ct 5671 -249 5677 -257 5686 -264 ct 
5695 -271 5706 -276 5720 -279 ct 5733 -283 5749 -285 5768 -285 ct 5803 -285 5830 -277 5847 -261 ct 
5865 -245 5874 -221 5874 -191 ct 5874 -71 l  5874 -57 5876 -46 5879 -39 ct 5883 -32 5890 -29 5900 -29 ct 
5903 -29 5905 -29 5908 -29 ct 5910 -30 5913 -30 5915 -31 ct 5915 -2 l  5909 0 5904 1 5898 1 ct 
5892 2 5886 2 5879 2 ct 5871 2 5863 1 5857 -1 ct 5850 -4 5845 -7 5841 -12 ct 5837 -17 5834 -22 5832 -29 ct 
5830 -36 5829 -44 5828 -54 ct 5827 -54 l  5822 -45 5816 -37 5810 -29 ct 5805 -22 5798 -16 5790 -11 ct 
5782 -6 5773 -2 5763 1 ct 5753 4 5741 5 5728 5 ct p
5739 -30 m  5753 -30 5766 -33 5777 -38 ct 5789 -43 5798 -50 5805 -59 ct 5812 -67 5818 -76 5821 -86 ct 
5825 -96 5827 -106 5827 -115 ct 5827 -137 l  5776 -137 l  5765 -137 5754 -137 5744 -135 ct 
5733 -134 5724 -131 5717 -127 ct 5709 -122 5703 -116 5698 -108 ct 5694 -101 5691 -90 5691 -78 ct 
5691 -62 5695 -51 5704 -42 ct 5712 -34 5723 -30 5739 -30 ct p ef
5954 0 m  5954 -215 l  5954 -221 5954 -227 5954 -233 ct 5953 -239 5953 -245 5953 -250 ct 
5953 -256 5953 -261 5953 -266 ct 5952 -271 5952 -276 5952 -280 ct 5996 -280 l 
5996 -276 5996 -271 5997 -266 ct 5997 -261 5997 -256 5997 -251 ct 5998 -245 5998 -240 5998 -235 ct 
5998 -230 5998 -226 5998 -223 ct 5999 -223 l  6002 -233 6006 -243 6010 -250 ct 
6013 -258 6018 -265 6023 -270 ct 6028 -275 6034 -279 6040 -281 ct 6047 -284 6056 -285 6066 -285 ct 
6069 -285 6073 -285 6076 -284 ct 6080 -284 6082 -283 6084 -282 ct 6084 -240 l 
6081 -241 6078 -241 6074 -242 ct 6069 -242 6065 -242 6060 -242 ct 6049 -242 6040 -240 6032 -235 ct 
6025 -230 6019 -224 6014 -215 ct 6009 -207 6006 -196 6004 -185 ct 6001 -173 6000 -160 6000 -146 ct 
6000 0 l  5954 0 l  p ef
6166 -130 m  6166 -116 6168 -102 6171 -90 ct 6174 -77 6178 -67 6185 -58 ct 6191 -49 6199 -42 6209 -37 ct 
6219 -32 6231 -30 6244 -30 ct 6264 -30 6281 -34 6293 -42 ct 6305 -50 6313 -60 6317 -73 ct 
6358 -61 l  6355 -53 6351 -46 6346 -38 ct 6341 -30 6334 -23 6325 -17 ct 6316 -10 6305 -5 6292 -1 ct 
6279 3 6263 5 6244 5 ct 6203 5 6172 -7 6150 -32 ct 6128 -57 6117 -93 6117 -142 ct 
6117 -168 6121 -190 6127 -208 ct 6134 -227 6143 -241 6154 -253 ct 6166 -264 6179 -272 6194 -277 ct 
6209 -282 6225 -285 6242 -285 ct 6266 -285 6286 -281 6301 -274 ct 6317 -266 6330 -256 6339 -242 ct 
6349 -229 6356 -213 6360 -195 ct 6364 -177 6366 -158 6366 -137 ct 6366 -130 l 
6166 -130 l  p
6318 -166 m  6315 -195 6308 -217 6295 -230 ct 6283 -244 6265 -251 6242 -251 ct 
6234 -251 6226 -249 6217 -247 ct 6209 -244 6201 -240 6194 -234 ct 6186 -227 6180 -219 6175 -208 ct 
6170 -197 6168 -183 6167 -166 ct 6318 -166 l  p ef
6604 0 m  6604 -177 l  6604 -191 6603 -202 6601 -212 ct 6599 -221 6596 -228 6591 -234 ct 
6587 -239 6581 -243 6574 -246 ct 6566 -248 6557 -249 6547 -249 ct 6535 -249 6526 -247 6517 -243 ct 
6508 -239 6500 -234 6494 -226 ct 6488 -219 6483 -210 6479 -199 ct 6476 -189 6474 -176 6474 -162 ct 
6474 0 l  6428 0 l  6428 -220 l  6428 -226 6428 -232 6428 -239 ct 6427 -245 6427 -251 6427 -257 ct 
6427 -263 6427 -268 6427 -272 ct 6426 -276 6426 -279 6426 -280 ct 6470 -280 l 
6470 -279 6470 -277 6471 -273 ct 6471 -269 6471 -265 6471 -260 ct 6471 -255 6472 -250 6472 -245 ct 
6472 -240 6472 -235 6472 -232 ct 6473 -232 l  6477 -240 6482 -247 6488 -254 ct 
6493 -261 6499 -266 6506 -271 ct 6513 -275 6521 -279 6530 -281 ct 6540 -284 6550 -285 6562 -285 ct 
6578 -285 6591 -283 6602 -279 ct 6613 -276 6623 -270 6630 -262 ct 6637 -254 6642 -244 6646 -231 ct 
6649 -219 6651 -204 6651 -186 ct 6651 0 l  6604 0 l  p ef
6831 -2 m  6824 0 6817 1 6810 2 ct 6802 3 6794 4 6784 4 ct 6747 4 6728 -17 6728 -59 ct 
6728 -246 l  6696 -246 l  6696 -280 l  6730 -280 l  6744 -343 l  6775 -343 l 
6775 -280 l  6826 -280 l  6826 -246 l  6775 -246 l  6775 -69 l  6775 -56 6777 -47 6781 -41 ct 
6786 -36 6793 -33 6804 -33 ct 6809 -33 6813 -33 6817 -34 ct 6822 -35 6826 -36 6831 -37 ct 
6831 -2 l  p ef
pom
pum
5149 7262 t
325 -255 m  325 -239 322 -224 317 -210 ct 312 -197 304 -185 294 -175 ct 283 -165 270 -157 254 -151 ct 
239 -145 221 -142 200 -142 ct 93 -142 l  93 0 l  43 0 l  43 -365 l  197 -365 l 
218 -365 237 -362 253 -357 ct 269 -351 282 -344 293 -334 ct 304 -325 312 -313 317 -300 ct 
322 -286 325 -271 325 -255 ct p
275 -254 m  275 -277 268 -295 254 -307 ct 240 -319 219 -325 191 -325 ct 93 -325 l 
93 -181 l  193 -181 l  221 -181 242 -187 255 -200 ct 269 -213 275 -231 275 -254 ct 
p ef
623 -140 m  623 -91 612 -55 591 -31 ct 569 -7 538 5 497 5 ct 477 5 460 2 445 -4 ct 
429 -10 416 -19 406 -31 ct 395 -43 387 -58 382 -76 ct 376 -94 373 -116 373 -140 ct 
373 -237 415 -285 498 -285 ct 520 -285 539 -282 555 -276 ct 570 -270 583 -261 593 -249 ct 
604 -237 611 -222 616 -204 ct 621 -186 623 -164 623 -140 ct p
574 -140 m  574 -162 572 -180 569 -194 ct 566 -208 561 -219 554 -228 ct 548 -236 540 -242 531 -246 ct 
521 -249 511 -251 499 -251 ct 487 -251 477 -249 467 -245 ct 458 -242 449 -236 443 -227 ct 
436 -219 431 -207 427 -193 ct 424 -179 422 -161 422 -140 ct 422 -119 424 -101 428 -86 ct 
432 -72 437 -61 443 -52 ct 450 -44 458 -38 467 -35 ct 476 -31 486 -29 496 -29 ct 
508 -29 519 -31 529 -34 ct 538 -38 547 -44 553 -52 ct 560 -61 565 -72 569 -86 ct 
572 -101 574 -119 574 -140 ct p ef
683 -340 m  683 -384 l  730 -384 l  730 -340 l  683 -340 l  p
683 0 m  683 -280 l  730 -280 l  730 0 l  683 0 l  p ef
979 0 m  979 -177 l  979 -191 978 -202 976 -212 ct 974 -221 971 -228 966 -234 ct 
962 -239 956 -243 949 -246 ct 941 -248 932 -249 922 -249 ct 910 -249 901 -247 892 -243 ct 
883 -239 875 -234 869 -226 ct 863 -219 858 -210 854 -199 ct 851 -189 849 -176 849 -162 ct 
849 0 l  803 0 l  803 -220 l  803 -226 803 -232 803 -239 ct 802 -245 802 -251 802 -257 ct 
802 -263 802 -268 802 -272 ct 801 -276 801 -279 801 -280 ct 845 -280 l  845 -279 845 -277 846 -273 ct 
846 -269 846 -265 846 -260 ct 846 -255 847 -250 847 -245 ct 847 -240 847 -235 847 -232 ct 
848 -232 l  852 -240 857 -247 863 -254 ct 868 -261 874 -266 881 -271 ct 888 -275 896 -279 905 -281 ct 
915 -284 925 -285 937 -285 ct 953 -285 966 -283 977 -279 ct 988 -276 998 -270 1005 -262 ct 
1012 -254 1017 -244 1021 -231 ct 1024 -219 1026 -204 1026 -186 ct 1026 0 l  979 0 l 
p ef
1206 -2 m  1199 0 1192 1 1185 2 ct 1177 3 1169 4 1159 4 ct 1122 4 1103 -17 1103 -59 ct 
1103 -246 l  1071 -246 l  1071 -280 l  1105 -280 l  1119 -343 l  1150 -343 l 
1150 -280 l  1201 -280 l  1201 -246 l  1150 -246 l  1150 -69 l  1150 -56 1152 -47 1156 -41 ct 
1161 -36 1168 -33 1179 -33 ct 1184 -33 1188 -33 1192 -34 ct 1197 -35 1201 -36 1206 -37 ct 
1206 -2 l  p ef
1282 -130 m  1282 -116 1284 -102 1287 -90 ct 1290 -77 1294 -67 1301 -58 ct 1307 -49 1315 -42 1325 -37 ct 
1335 -32 1347 -30 1360 -30 ct 1380 -30 1397 -34 1409 -42 ct 1421 -50 1429 -60 1433 -73 ct 
1474 -61 l  1471 -53 1467 -46 1462 -38 ct 1457 -30 1450 -23 1441 -17 ct 1432 -10 1421 -5 1408 -1 ct 
1395 3 1379 5 1360 5 ct 1319 5 1288 -7 1266 -32 ct 1244 -57 1233 -93 1233 -142 ct 
1233 -168 1237 -190 1243 -208 ct 1250 -227 1259 -241 1270 -253 ct 1282 -264 1295 -272 1310 -277 ct 
1325 -282 1341 -285 1358 -285 ct 1382 -285 1402 -281 1417 -274 ct 1433 -266 1446 -256 1455 -242 ct 
1465 -229 1472 -213 1476 -195 ct 1480 -177 1482 -158 1482 -137 ct 1482 -130 l 
1282 -130 l  p
1434 -166 m  1431 -195 1424 -217 1411 -230 ct 1399 -244 1381 -251 1358 -251 ct 
1350 -251 1342 -249 1333 -247 ct 1325 -244 1317 -240 1310 -234 ct 1302 -227 1296 -219 1291 -208 ct 
1286 -197 1284 -183 1283 -166 ct 1434 -166 l  p ef
1544 0 m  1544 -215 l  1544 -221 1544 -227 1544 -233 ct 1543 -239 1543 -245 1543 -250 ct 
1543 -256 1543 -261 1543 -266 ct 1542 -271 1542 -276 1542 -280 ct 1586 -280 l 
1586 -276 1586 -271 1587 -266 ct 1587 -261 1587 -256 1587 -251 ct 1588 -245 1588 -240 1588 -235 ct 
1588 -230 1588 -226 1588 -223 ct 1589 -223 l  1592 -233 1596 -243 1600 -250 ct 
1603 -258 1608 -265 1613 -270 ct 1618 -275 1624 -279 1630 -281 ct 1637 -284 1646 -285 1656 -285 ct 
1659 -285 1663 -285 1666 -284 ct 1670 -284 1672 -283 1674 -282 ct 1674 -240 l 
1671 -241 1668 -241 1664 -242 ct 1659 -242 1655 -242 1650 -242 ct 1639 -242 1630 -240 1622 -235 ct 
1615 -230 1609 -224 1604 -215 ct 1599 -207 1596 -196 1594 -185 ct 1591 -173 1590 -160 1590 -146 ct 
1590 0 l  1544 0 l  p ef
1976 -2 m  1969 0 1962 1 1955 2 ct 1947 3 1939 4 1929 4 ct 1892 4 1873 -17 1873 -59 ct 
1873 -246 l  1841 -246 l  1841 -280 l  1875 -280 l  1889 -343 l  1920 -343 l 
1920 -280 l  1971 -280 l  1971 -246 l  1920 -246 l  1920 -69 l  1920 -56 1922 -47 1926 -41 ct 
1931 -36 1938 -33 1949 -33 ct 1954 -33 1958 -33 1962 -34 ct 1967 -35 1971 -36 1976 -37 ct 
1976 -2 l  p ef
2253 -140 m  2253 -91 2242 -55 2221 -31 ct 2199 -7 2168 5 2127 5 ct 2107 5 2090 2 2075 -4 ct 
2059 -10 2046 -19 2036 -31 ct 2025 -43 2017 -58 2012 -76 ct 2006 -94 2003 -116 2003 -140 ct 
2003 -237 2045 -285 2128 -285 ct 2150 -285 2169 -282 2185 -276 ct 2200 -270 2213 -261 2223 -249 ct 
2234 -237 2241 -222 2246 -204 ct 2251 -186 2253 -164 2253 -140 ct p
2204 -140 m  2204 -162 2202 -180 2199 -194 ct 2196 -208 2191 -219 2184 -228 ct 
2178 -236 2170 -242 2161 -246 ct 2151 -249 2141 -251 2129 -251 ct 2117 -251 2107 -249 2097 -245 ct 
2088 -242 2079 -236 2073 -227 ct 2066 -219 2061 -207 2057 -193 ct 2054 -179 2052 -161 2052 -140 ct 
2052 -119 2054 -101 2058 -86 ct 2062 -72 2067 -61 2073 -52 ct 2080 -44 2088 -38 2097 -35 ct 
2106 -31 2116 -29 2126 -29 ct 2138 -29 2149 -31 2159 -34 ct 2168 -38 2177 -44 2183 -52 ct 
2190 -61 2195 -72 2199 -86 ct 2202 -101 2204 -119 2204 -140 ct p ef
2463 0 m  2463 -215 l  2463 -221 2463 -227 2463 -233 ct 2462 -239 2462 -245 2462 -250 ct 
2462 -256 2462 -261 2462 -266 ct 2461 -271 2461 -276 2461 -280 ct 2505 -280 l 
2505 -276 2505 -271 2506 -266 ct 2506 -261 2506 -256 2506 -251 ct 2507 -245 2507 -240 2507 -235 ct 
2507 -230 2507 -226 2507 -223 ct 2508 -223 l  2511 -233 2515 -243 2519 -250 ct 
2522 -258 2527 -265 2532 -270 ct 2537 -275 2543 -279 2549 -281 ct 2556 -284 2565 -285 2575 -285 ct 
2578 -285 2582 -285 2585 -284 ct 2589 -284 2591 -283 2593 -282 ct 2593 -240 l 
2590 -241 2587 -241 2583 -242 ct 2578 -242 2574 -242 2569 -242 ct 2558 -242 2549 -240 2541 -235 ct 
2534 -230 2528 -224 2523 -215 ct 2518 -207 2515 -196 2513 -185 ct 2510 -173 2509 -160 2509 -146 ct 
2509 0 l  2463 0 l  p ef
2639 -340 m  2639 -384 l  2686 -384 l  2686 -340 l  2639 -340 l  p
2639 0 m  2639 -280 l  2686 -280 l  2686 0 l  2639 0 l  p ef
2864 110 m  2848 110 2833 108 2821 105 ct 2809 102 2798 97 2789 91 ct 2780 85 2773 78 2768 69 ct 
2762 61 2758 51 2756 41 ct 2803 34 l  2806 47 2813 57 2823 64 ct 2834 71 2848 75 2865 75 ct 
2875 75 2885 73 2894 70 ct 2902 67 2909 63 2915 56 ct 2922 50 2926 41 2929 31 ct 
2933 20 2934 8 2934 -7 ct 2934 -52 l  2934 -52 l  2930 -45 2926 -38 2921 -32 ct 
2916 -25 2910 -20 2902 -15 ct 2895 -10 2887 -6 2877 -3 ct 2867 0 2856 2 2844 2 ct 
2826 2 2811 -1 2798 -7 ct 2786 -13 2775 -22 2767 -34 ct 2759 -46 2753 -60 2750 -78 ct 
2746 -96 2744 -116 2744 -139 ct 2744 -162 2746 -182 2750 -200 ct 2753 -218 2760 -233 2768 -245 ct 
2776 -258 2787 -267 2800 -274 ct 2814 -281 2830 -284 2849 -284 ct 2869 -284 2886 -279 2901 -270 ct 
2915 -261 2926 -249 2934 -232 ct 2935 -232 l  2935 -236 2935 -241 2935 -246 ct 
2935 -252 2936 -257 2936 -261 ct 2936 -266 2937 -270 2937 -274 ct 2937 -277 2938 -279 2938 -280 ct 
2982 -280 l  2982 -278 2982 -275 2982 -272 ct 2981 -268 2981 -264 2981 -258 ct 
2981 -253 2981 -248 2981 -241 ct 2981 -235 2981 -228 2981 -222 ct 2981 -8 l 
2981 31 2971 61 2952 80 ct 2933 100 2903 110 2864 110 ct p
2934 -140 m  2934 -159 2932 -176 2928 -190 ct 2924 -204 2918 -215 2911 -224 ct 
2904 -233 2897 -239 2888 -243 ct 2879 -247 2870 -249 2860 -249 ct 2849 -249 2838 -247 2830 -243 ct 
2821 -239 2814 -233 2809 -224 ct 2803 -215 2799 -203 2796 -190 ct 2794 -176 2792 -159 2792 -140 ct 
2792 -120 2794 -103 2796 -89 ct 2799 -75 2803 -64 2809 -56 ct 2814 -47 2821 -41 2829 -38 ct 
2838 -34 2848 -32 2860 -32 ct 2869 -32 2878 -34 2887 -38 ct 2896 -42 2904 -49 2911 -57 ct 
2918 -66 2924 -77 2928 -91 ct 2932 -104 2934 -121 2934 -140 ct p ef
3100 -232 m  3105 -241 3111 -250 3117 -256 ct 3123 -263 3129 -268 3137 -273 ct 
3144 -277 3152 -280 3160 -282 ct 3169 -284 3179 -285 3189 -285 ct 3207 -285 3222 -283 3233 -278 ct 
3245 -273 3254 -266 3260 -257 ct 3267 -249 3272 -238 3274 -226 ct 3277 -214 3278 -201 3278 -187 ct 
3278 0 l  3231 0 l  3231 -177 l  3231 -189 3230 -200 3229 -209 ct 3227 -218 3225 -225 3221 -231 ct 
3216 -237 3211 -242 3203 -245 ct 3195 -248 3186 -249 3174 -249 ct 3162 -249 3153 -247 3144 -243 ct 
3135 -239 3127 -234 3121 -226 ct 3115 -219 3110 -210 3106 -200 ct 3103 -190 3101 -178 3101 -165 ct 
3101 0 l  3055 0 l  3055 -384 l  3101 -384 l  3101 -284 l  3101 -278 3101 -273 3101 -267 ct 
3101 -261 3101 -256 3100 -251 ct 3100 -246 3100 -242 3100 -239 ct 3099 -236 3099 -233 3099 -232 ct 
3100 -232 l  p ef
3458 -2 m  3451 0 3444 1 3437 2 ct 3429 3 3421 4 3411 4 ct 3374 4 3355 -17 3355 -59 ct 
3355 -246 l  3323 -246 l  3323 -280 l  3357 -280 l  3371 -343 l  3402 -343 l 
3402 -280 l  3453 -280 l  3453 -246 l  3402 -246 l  3402 -69 l  3402 -56 3404 -47 3408 -41 ct 
3413 -36 3420 -33 3431 -33 ct 3436 -33 3440 -33 3444 -34 ct 3449 -35 3453 -36 3458 -37 ct 
3458 -2 l  p ef
3682 -141 m  3682 -125 3683 -111 3686 -97 ct 3688 -84 3692 -72 3697 -62 ct 3703 -53 3710 -45 3719 -40 ct 
3728 -34 3739 -32 3753 -32 ct 3769 -32 3783 -36 3794 -45 ct 3805 -53 3812 -67 3815 -85 ct 
3862 -85 l  3860 -73 3857 -62 3851 -51 ct 3846 -40 3839 -31 3830 -22 ct 3822 -14 3811 -7 3798 -2 ct 
3785 2 3771 5 3754 5 ct 3732 5 3713 1 3698 -6 ct 3683 -14 3670 -24 3661 -37 ct 
3651 -50 3644 -65 3640 -83 ct 3636 -100 3633 -120 3633 -140 ct 3633 -159 3635 -176 3638 -190 ct 
3641 -204 3646 -217 3651 -228 ct 3657 -239 3663 -248 3671 -255 ct 3679 -262 3687 -268 3696 -272 ct 
3704 -277 3714 -280 3724 -282 ct 3733 -284 3743 -285 3753 -285 ct 3769 -285 3783 -283 3795 -279 ct 
3807 -274 3818 -268 3827 -261 ct 3836 -253 3843 -245 3848 -234 ct 3854 -224 3858 -213 3860 -202 ct 
3812 -198 l  3810 -213 3804 -226 3794 -235 ct 3784 -244 3770 -249 3752 -249 ct 
3739 -249 3728 -246 3719 -242 ct 3710 -238 3703 -231 3697 -222 ct 3692 -213 3688 -202 3686 -189 ct 
3683 -175 3682 -159 3682 -141 ct p ef
3960 -232 m  3965 -241 3971 -250 3977 -256 ct 3983 -263 3989 -268 3997 -273 ct 
4004 -277 4012 -280 4020 -282 ct 4029 -284 4039 -285 4049 -285 ct 4067 -285 4082 -283 4093 -278 ct 
4105 -273 4114 -266 4120 -257 ct 4127 -249 4132 -238 4134 -226 ct 4137 -214 4138 -201 4138 -187 ct 
4138 0 l  4091 0 l  4091 -177 l  4091 -189 4090 -200 4089 -209 ct 4087 -218 4085 -225 4081 -231 ct 
4076 -237 4071 -242 4063 -245 ct 4055 -248 4046 -249 4034 -249 ct 4022 -249 4013 -247 4004 -243 ct 
3995 -239 3987 -234 3981 -226 ct 3975 -219 3970 -210 3966 -200 ct 3963 -190 3961 -178 3961 -165 ct 
3961 0 l  3915 0 l  3915 -384 l  3961 -384 l  3961 -284 l  3961 -278 3961 -273 3961 -267 ct 
3961 -261 3961 -256 3960 -251 ct 3960 -246 3960 -242 3960 -239 ct 3959 -236 3959 -233 3959 -232 ct 
3960 -232 l  p ef
4209 -340 m  4209 -384 l  4256 -384 l  4256 -340 l  4209 -340 l  p
4209 0 m  4209 -280 l  4256 -280 l  4256 0 l  4209 0 l  p ef
4329 0 m  4329 -384 l  4375 -384 l  4375 0 l  4329 0 l  p ef
4623 -45 m  4614 -27 4603 -14 4589 -7 ct 4575 1 4557 5 4536 5 ct 4501 5 4475 -7 4458 -31 ct 
4442 -55 4433 -91 4433 -139 ct 4433 -237 4467 -285 4536 -285 ct 4557 -285 4575 -282 4589 -274 ct 
4603 -266 4614 -254 4623 -237 ct 4624 -237 l  4624 -238 4624 -241 4623 -245 ct 
4623 -249 4623 -252 4623 -257 ct 4623 -261 4623 -264 4623 -268 ct 4623 -272 4623 -274 4623 -276 ct 
4623 -384 l  4670 -384 l  4670 -58 l  4670 -51 4670 -45 4670 -38 ct 4670 -32 4670 -27 4670 -21 ct 
4670 -16 4670 -12 4671 -8 ct 4671 -4 4671 -2 4671 0 ct 4627 0 l  4626 -2 4626 -4 4626 -8 ct 
4626 -11 4625 -14 4625 -19 ct 4625 -23 4625 -27 4624 -32 ct 4624 -36 4624 -41 4624 -45 ct 
4623 -45 l  p
4482 -140 m  4482 -121 4483 -105 4486 -91 ct 4488 -77 4492 -66 4497 -57 ct 4503 -48 4509 -41 4518 -37 ct 
4526 -33 4536 -31 4548 -31 ct 4560 -31 4571 -33 4580 -37 ct 4590 -41 4598 -47 4604 -56 ct 
4610 -65 4615 -77 4618 -91 ct 4621 -105 4623 -123 4623 -144 ct 4623 -163 4621 -180 4618 -194 ct 
4615 -208 4610 -219 4604 -227 ct 4597 -236 4590 -242 4580 -245 ct 4571 -249 4560 -251 4548 -251 ct 
4537 -251 4527 -249 4519 -245 ct 4511 -241 4504 -235 4498 -226 ct 4493 -217 4489 -206 4486 -192 ct 
4483 -178 4482 -160 4482 -140 ct p ef
5100 -77 m  5100 -64 5098 -53 5093 -42 ct 5088 -32 5080 -24 5071 -17 ct 5061 -10 5049 -4 5035 -1 ct 
5021 3 5005 5 4987 5 ct 4971 5 4956 4 4943 1 ct 4930 -1 4919 -5 4909 -11 ct 4899 -16 4891 -24 4884 -33 ct 
4878 -42 4873 -53 4870 -66 ct 4911 -74 l  4915 -59 4923 -48 4935 -41 ct 4948 -34 4965 -30 4987 -30 ct 
4997 -30 5006 -31 5015 -33 ct 5023 -34 5030 -36 5036 -40 ct 5042 -43 5047 -47 5050 -53 ct 
5054 -59 5055 -66 5055 -74 ct 5055 -82 5053 -89 5049 -95 ct 5045 -100 5040 -105 5033 -108 ct 
5026 -112 5017 -115 5007 -118 ct 4997 -120 4986 -123 4974 -127 ct 4963 -129 4952 -133 4941 -136 ct 
4929 -140 4920 -145 4911 -151 ct 4902 -157 4895 -164 4889 -173 ct 4884 -182 4881 -193 4881 -206 ct 
4881 -231 4890 -251 4908 -264 ct 4926 -278 4953 -284 4988 -284 ct 5018 -284 5043 -279 5061 -268 ct 
5079 -257 5091 -240 5095 -216 ct 5054 -211 l  5052 -218 5049 -224 5045 -229 ct 
5041 -234 5036 -238 5030 -241 ct 5024 -244 5018 -246 5010 -247 ct 5003 -248 4995 -249 4988 -249 ct 
4967 -249 4951 -246 4941 -239 ct 4931 -233 4926 -223 4926 -210 ct 4926 -203 4928 -197 4932 -192 ct 
4935 -187 4940 -183 4947 -179 ct 4954 -176 4962 -173 4971 -171 ct 4980 -168 4991 -165 5002 -163 ct 
5009 -161 5017 -159 5024 -157 ct 5032 -154 5040 -152 5047 -149 ct 5054 -146 5061 -142 5068 -138 ct 
5074 -134 5080 -129 5085 -124 ct 5089 -118 5093 -111 5096 -104 ct 5099 -96 5100 -87 5100 -77 ct 
p ef
5264 -2 m  5257 0 5250 1 5243 2 ct 5235 3 5227 4 5217 4 ct 5180 4 5161 -17 5161 -59 ct 
5161 -246 l  5129 -246 l  5129 -280 l  5163 -280 l  5177 -343 l  5208 -343 l 
5208 -280 l  5259 -280 l  5259 -246 l  5208 -246 l  5208 -69 l  5208 -56 5210 -47 5214 -41 ct 
5219 -36 5226 -33 5237 -33 ct 5242 -33 5246 -33 5250 -34 ct 5255 -35 5259 -36 5264 -37 ct 
5264 -2 l  p ef
5542 -140 m  5542 -91 5531 -55 5510 -31 ct 5488 -7 5457 5 5416 5 ct 5396 5 5379 2 5364 -4 ct 
5348 -10 5335 -19 5325 -31 ct 5314 -43 5306 -58 5301 -76 ct 5295 -94 5292 -116 5292 -140 ct 
5292 -237 5334 -285 5417 -285 ct 5439 -285 5458 -282 5474 -276 ct 5489 -270 5502 -261 5512 -249 ct 
5523 -237 5530 -222 5535 -204 ct 5540 -186 5542 -164 5542 -140 ct p
5493 -140 m  5493 -162 5491 -180 5488 -194 ct 5485 -208 5480 -219 5473 -228 ct 
5467 -236 5459 -242 5450 -246 ct 5440 -249 5430 -251 5418 -251 ct 5406 -251 5396 -249 5386 -245 ct 
5377 -242 5368 -236 5362 -227 ct 5355 -219 5350 -207 5346 -193 ct 5343 -179 5341 -161 5341 -140 ct 
5341 -119 5343 -101 5347 -86 ct 5351 -72 5356 -61 5362 -52 ct 5369 -44 5377 -38 5386 -35 ct 
5395 -31 5405 -29 5415 -29 ct 5427 -29 5438 -31 5448 -34 ct 5457 -38 5466 -44 5472 -52 ct 
5479 -61 5484 -72 5488 -86 ct 5491 -101 5493 -119 5493 -140 ct p ef
5603 0 m  5603 -215 l  5603 -221 5603 -227 5603 -233 ct 5602 -239 5602 -245 5602 -250 ct 
5602 -256 5602 -261 5602 -266 ct 5601 -271 5601 -276 5601 -280 ct 5645 -280 l 
5645 -276 5645 -271 5646 -266 ct 5646 -261 5646 -256 5646 -251 ct 5647 -245 5647 -240 5647 -235 ct 
5647 -230 5647 -226 5647 -223 ct 5648 -223 l  5651 -233 5655 -243 5659 -250 ct 
5662 -258 5667 -265 5672 -270 ct 5677 -275 5683 -279 5689 -281 ct 5696 -284 5705 -285 5715 -285 ct 
5718 -285 5722 -285 5725 -284 ct 5729 -284 5731 -283 5733 -282 ct 5733 -240 l 
5730 -241 5727 -241 5723 -242 ct 5718 -242 5714 -242 5709 -242 ct 5698 -242 5689 -240 5681 -235 ct 
5674 -230 5668 -224 5663 -215 ct 5658 -207 5655 -196 5653 -185 ct 5650 -173 5649 -160 5649 -146 ct 
5649 0 l  5603 0 l  p ef
5815 -130 m  5815 -116 5817 -102 5820 -90 ct 5823 -77 5827 -67 5834 -58 ct 5840 -49 5848 -42 5858 -37 ct 
5868 -32 5880 -30 5893 -30 ct 5913 -30 5930 -34 5942 -42 ct 5954 -50 5962 -60 5966 -73 ct 
6007 -61 l  6004 -53 6000 -46 5995 -38 ct 5990 -30 5983 -23 5974 -17 ct 5965 -10 5954 -5 5941 -1 ct 
5928 3 5912 5 5893 5 ct 5852 5 5821 -7 5799 -32 ct 5777 -57 5766 -93 5766 -142 ct 
5766 -168 5770 -190 5776 -208 ct 5783 -227 5792 -241 5803 -253 ct 5815 -264 5828 -272 5843 -277 ct 
5858 -282 5874 -285 5891 -285 ct 5915 -285 5935 -281 5950 -274 ct 5966 -266 5979 -256 5988 -242 ct 
5998 -229 6005 -213 6009 -195 ct 6013 -177 6015 -158 6015 -137 ct 6015 -130 l 
5815 -130 l  p
5967 -166 m  5964 -195 5957 -217 5944 -230 ct 5932 -244 5914 -251 5891 -251 ct 
5883 -251 5875 -249 5866 -247 ct 5858 -244 5850 -240 5843 -234 ct 5835 -227 5829 -219 5824 -208 ct 
5819 -197 5817 -183 5816 -166 ct 5967 -166 l  p ef
6252 -45 m  6243 -27 6232 -14 6218 -7 ct 6204 1 6186 5 6165 5 ct 6130 5 6104 -7 6087 -31 ct 
6071 -55 6062 -91 6062 -139 ct 6062 -237 6096 -285 6165 -285 ct 6186 -285 6204 -282 6218 -274 ct 
6232 -266 6243 -254 6252 -237 ct 6253 -237 l  6253 -238 6253 -241 6252 -245 ct 
6252 -249 6252 -252 6252 -257 ct 6252 -261 6252 -264 6252 -268 ct 6252 -272 6252 -274 6252 -276 ct 
6252 -384 l  6299 -384 l  6299 -58 l  6299 -51 6299 -45 6299 -38 ct 6299 -32 6299 -27 6299 -21 ct 
6299 -16 6299 -12 6300 -8 ct 6300 -4 6300 -2 6300 0 ct 6256 0 l  6255 -2 6255 -4 6255 -8 ct 
6255 -11 6254 -14 6254 -19 ct 6254 -23 6254 -27 6253 -32 ct 6253 -36 6253 -41 6253 -45 ct 
6252 -45 l  p
6111 -140 m  6111 -121 6112 -105 6115 -91 ct 6117 -77 6121 -66 6126 -57 ct 6132 -48 6138 -41 6147 -37 ct 
6155 -33 6165 -31 6177 -31 ct 6189 -31 6200 -33 6209 -37 ct 6219 -41 6227 -47 6233 -56 ct 
6239 -65 6244 -77 6247 -91 ct 6250 -105 6252 -123 6252 -144 ct 6252 -163 6250 -180 6247 -194 ct 
6244 -208 6239 -219 6233 -227 ct 6226 -236 6219 -242 6209 -245 ct 6200 -249 6189 -251 6177 -251 ct 
6166 -251 6156 -249 6148 -245 ct 6140 -241 6133 -235 6127 -226 ct 6122 -217 6118 -206 6115 -192 ct 
6112 -178 6111 -160 6111 -140 ct p ef
6519 -340 m  6519 -384 l  6566 -384 l  6566 -340 l  6519 -340 l  p
6519 0 m  6519 -280 l  6566 -280 l  6566 0 l  6519 0 l  p ef
6816 0 m  6816 -177 l  6816 -191 6815 -202 6813 -212 ct 6811 -221 6808 -228 6803 -234 ct 
6799 -239 6793 -243 6786 -246 ct 6778 -248 6769 -249 6759 -249 ct 6747 -249 6738 -247 6729 -243 ct 
6720 -239 6712 -234 6706 -226 ct 6700 -219 6695 -210 6691 -199 ct 6688 -189 6686 -176 6686 -162 ct 
6686 0 l  6640 0 l  6640 -220 l  6640 -226 6640 -232 6640 -239 ct 6639 -245 6639 -251 6639 -257 ct 
6639 -263 6639 -268 6639 -272 ct 6638 -276 6638 -279 6638 -280 ct 6682 -280 l 
6682 -279 6682 -277 6683 -273 ct 6683 -269 6683 -265 6683 -260 ct 6683 -255 6684 -250 6684 -245 ct 
6684 -240 6684 -235 6684 -232 ct 6685 -232 l  6689 -240 6694 -247 6700 -254 ct 
6705 -261 6711 -266 6718 -271 ct 6725 -275 6733 -279 6742 -281 ct 6752 -284 6762 -285 6774 -285 ct 
6790 -285 6803 -283 6814 -279 ct 6825 -276 6835 -270 6842 -262 ct 6849 -254 6854 -244 6858 -231 ct 
6861 -219 6863 -204 6863 -186 ct 6863 0 l  6816 0 l  p ef
7320 -141 m  7320 -120 7318 -100 7315 -82 ct 7311 -64 7306 -49 7298 -36 ct 7290 -23 7279 -13 7266 -6 ct 
7253 2 7236 5 7217 5 ct 7197 5 7180 2 7165 -6 ct 7150 -14 7138 -26 7130 -43 ct 
7129 -43 l  7129 -43 7129 -41 7129 -39 ct 7130 -36 7130 -32 7130 -28 ct 7130 -24 7130 -20 7130 -14 ct 
7130 -9 7130 -4 7130 1 ct 7130 110 l  7084 110 l  7084 -223 l  7084 -229 7084 -236 7084 -242 ct 
7083 -248 7083 -254 7083 -259 ct 7083 -264 7083 -268 7083 -272 ct 7082 -276 7082 -278 7082 -280 ct 
7127 -280 l  7127 -279 7127 -277 7128 -274 ct 7128 -271 7128 -268 7128 -263 ct 
7129 -259 7129 -254 7129 -249 ct 7130 -244 7130 -239 7130 -235 ct 7131 -235 l 
7135 -244 7140 -252 7145 -258 ct 7151 -264 7157 -269 7164 -273 ct 7171 -277 7179 -280 7188 -282 ct 
7197 -284 7206 -285 7217 -285 ct 7236 -285 7253 -282 7266 -275 ct 7279 -268 7290 -258 7298 -245 ct 
7306 -233 7311 -218 7315 -200 ct 7318 -182 7320 -163 7320 -141 ct p
7271 -140 m  7271 -157 7270 -173 7268 -186 ct 7266 -200 7262 -211 7257 -221 ct 
7252 -230 7246 -237 7237 -242 ct 7229 -247 7218 -249 7205 -249 ct 7195 -249 7185 -248 7176 -245 ct 
7167 -242 7159 -236 7152 -228 ct 7145 -219 7140 -208 7136 -193 ct 7132 -179 7130 -160 7130 -137 ct 
7130 -117 7132 -100 7135 -86 ct 7138 -72 7143 -61 7149 -53 ct 7156 -44 7163 -38 7173 -35 ct 
7182 -31 7193 -29 7205 -29 ct 7218 -29 7228 -32 7237 -37 ct 7245 -42 7252 -49 7257 -58 ct 
7262 -68 7266 -79 7268 -93 ct 7270 -107 7271 -123 7271 -140 ct p ef
7451 5 m  7423 5 7402 -2 7388 -17 ct 7374 -32 7366 -53 7366 -79 ct 7366 -97 7370 -112 7377 -124 ct 
7384 -136 7393 -145 7404 -152 ct 7416 -159 7428 -164 7443 -166 ct 7457 -169 7472 -170 7487 -170 ct 
7550 -170 l  7550 -185 l  7550 -197 7549 -207 7546 -215 ct 7544 -223 7540 -230 7535 -235 ct 
7530 -240 7524 -244 7516 -246 ct 7509 -248 7500 -250 7490 -250 ct 7481 -250 7473 -249 7466 -248 ct 
7458 -246 7452 -244 7447 -241 ct 7441 -237 7437 -233 7434 -227 ct 7431 -221 7428 -214 7427 -205 ct 
7379 -210 l  7381 -221 7384 -231 7389 -240 ct 7394 -249 7400 -257 7409 -264 ct 
7418 -271 7429 -276 7443 -279 ct 7456 -283 7472 -285 7491 -285 ct 7526 -285 7553 -277 7570 -261 ct 
7588 -245 7597 -221 7597 -191 ct 7597 -71 l  7597 -57 7599 -46 7602 -39 ct 7606 -32 7613 -29 7623 -29 ct 
7626 -29 7628 -29 7631 -29 ct 7633 -30 7636 -30 7638 -31 ct 7638 -2 l  7632 0 7627 1 7621 1 ct 
7615 2 7609 2 7602 2 ct 7594 2 7586 1 7580 -1 ct 7573 -4 7568 -7 7564 -12 ct 7560 -17 7557 -22 7555 -29 ct 
7553 -36 7552 -44 7551 -54 ct 7550 -54 l  7545 -45 7539 -37 7533 -29 ct 7528 -22 7521 -16 7513 -11 ct 
7505 -6 7496 -2 7486 1 ct 7476 4 7464 5 7451 5 ct p
7462 -30 m  7476 -30 7489 -33 7500 -38 ct 7512 -43 7521 -50 7528 -59 ct 7535 -67 7541 -76 7544 -86 ct 
7548 -96 7550 -106 7550 -115 ct 7550 -137 l  7499 -137 l  7488 -137 7477 -137 7467 -135 ct 
7456 -134 7447 -131 7440 -127 ct 7432 -122 7426 -116 7421 -108 ct 7417 -101 7414 -90 7414 -78 ct 
7414 -62 7418 -51 7427 -42 ct 7435 -34 7446 -30 7462 -30 ct p ef
7677 0 m  7677 -215 l  7677 -221 7677 -227 7677 -233 ct 7676 -239 7676 -245 7676 -250 ct 
7676 -256 7676 -261 7676 -266 ct 7675 -271 7675 -276 7675 -280 ct 7719 -280 l 
7719 -276 7719 -271 7720 -266 ct 7720 -261 7720 -256 7720 -251 ct 7721 -245 7721 -240 7721 -235 ct 
7721 -230 7721 -226 7721 -223 ct 7722 -223 l  7725 -233 7729 -243 7733 -250 ct 
7736 -258 7741 -265 7746 -270 ct 7751 -275 7757 -279 7763 -281 ct 7770 -284 7779 -285 7789 -285 ct 
7792 -285 7796 -285 7799 -284 ct 7803 -284 7805 -283 7807 -282 ct 7807 -240 l 
7804 -241 7801 -241 7797 -242 ct 7792 -242 7788 -242 7783 -242 ct 7772 -242 7763 -240 7755 -235 ct 
7748 -230 7742 -224 7737 -215 ct 7732 -207 7729 -196 7727 -185 ct 7724 -173 7723 -160 7723 -146 ct 
7723 0 l  7677 0 l  p ef
7889 -130 m  7889 -116 7891 -102 7894 -90 ct 7897 -77 7901 -67 7908 -58 ct 7914 -49 7922 -42 7932 -37 ct 
7942 -32 7954 -30 7967 -30 ct 7987 -30 8004 -34 8016 -42 ct 8028 -50 8036 -60 8040 -73 ct 
8081 -61 l  8078 -53 8074 -46 8069 -38 ct 8064 -30 8057 -23 8048 -17 ct 8039 -10 8028 -5 8015 -1 ct 
8002 3 7986 5 7967 5 ct 7926 5 7895 -7 7873 -32 ct 7851 -57 7840 -93 7840 -142 ct 
7840 -168 7844 -190 7850 -208 ct 7857 -227 7866 -241 7877 -253 ct 7889 -264 7902 -272 7917 -277 ct 
7932 -282 7948 -285 7965 -285 ct 7989 -285 8009 -281 8024 -274 ct 8040 -266 8053 -256 8062 -242 ct 
8072 -229 8079 -213 8083 -195 ct 8087 -177 8089 -158 8089 -137 ct 8089 -130 l 
7889 -130 l  p
8041 -166 m  8038 -195 8031 -217 8018 -230 ct 8006 -244 7988 -251 7965 -251 ct 
7957 -251 7949 -249 7940 -247 ct 7932 -244 7924 -240 7917 -234 ct 7909 -227 7903 -219 7898 -208 ct 
7893 -197 7891 -183 7890 -166 ct 8041 -166 l  p ef
8327 0 m  8327 -177 l  8327 -191 8326 -202 8324 -212 ct 8322 -221 8319 -228 8314 -234 ct 
8310 -239 8304 -243 8297 -246 ct 8289 -248 8280 -249 8270 -249 ct 8258 -249 8249 -247 8240 -243 ct 
8231 -239 8223 -234 8217 -226 ct 8211 -219 8206 -210 8202 -199 ct 8199 -189 8197 -176 8197 -162 ct 
8197 0 l  8151 0 l  8151 -220 l  8151 -226 8151 -232 8151 -239 ct 8150 -245 8150 -251 8150 -257 ct 
8150 -263 8150 -268 8150 -272 ct 8149 -276 8149 -279 8149 -280 ct 8193 -280 l 
8193 -279 8193 -277 8194 -273 ct 8194 -269 8194 -265 8194 -260 ct 8194 -255 8195 -250 8195 -245 ct 
8195 -240 8195 -235 8195 -232 ct 8196 -232 l  8200 -240 8205 -247 8211 -254 ct 
8216 -261 8222 -266 8229 -271 ct 8236 -275 8244 -279 8253 -281 ct 8263 -284 8273 -285 8285 -285 ct 
8301 -285 8314 -283 8325 -279 ct 8336 -276 8346 -270 8353 -262 ct 8360 -254 8365 -244 8369 -231 ct 
8372 -219 8374 -204 8374 -186 ct 8374 0 l  8327 0 l  p ef
8554 -2 m  8547 0 8540 1 8533 2 ct 8525 3 8517 4 8507 4 ct 8470 4 8451 -17 8451 -59 ct 
8451 -246 l  8419 -246 l  8419 -280 l  8453 -280 l  8467 -343 l  8498 -343 l 
8498 -280 l  8549 -280 l  8549 -246 l  8498 -246 l  8498 -69 l  8498 -56 8500 -47 8504 -41 ct 
8509 -36 8516 -33 8527 -33 ct 8532 -33 8536 -33 8540 -34 ct 8545 -35 8549 -36 8554 -37 ct 
8554 -2 l  p ef
pom
0 lw 10998 5798 m  10498 5798 l  10498 4798 l  11498 4798 l  11498 5798 l 
10998 5798 l  pc
pum
10845 5520 t
187 -1 m  179 20 171 38 163 54 ct 155 70 146 84 136 96 ct 126 107 114 116 102 122 ct 
90 128 75 131 59 131 ct 52 131 46 131 40 131 ct 34 131 27 130 21 128 ct 21 86 l 
25 87 29 88 34 88 ct 39 88 43 88 47 88 ct 63 88 78 82 92 70 ct 106 57 119 38 129 11 ct 
135 -2 l  2 -336 l  61 -336 l  132 -150 l  134 -145 136 -137 140 -128 ct 
143 -119 146 -109 149 -100 ct 152 -91 155 -83 158 -75 ct 160 -68 162 -63 162 -61 ct 
163 -63 164 -68 167 -75 ct 169 -81 172 -89 175 -97 ct 178 -105 181 -114 184 -122 ct 
187 -131 190 -138 192 -144 ct 257 -336 l  316 -336 l  187 -1 l  p ef
pom
5999 5798 m  5499 5798 l  5499 4798 l  6499 4798 l  6499 5798 l  5999 5798 l 
pc
0 4200 t 
pom
count op_count sub {pop} repeat countdictstack dict_count sub {end} repeat b4_inc_state restore
%%PageTrailer
%%Trailer
%%EOF
