\relax 
\citation{WikiHas:14}
\@writefile{toc}{\contentsline {section}{\numberline {1}Background Research}{2}}
\@writefile{toc}{\contentsline {subsection}{\numberline {1.1}Context}{2}}
\@writefile{toc}{\contentsline {subsection}{\numberline {1.2}Problem Statement}{2}}
\@writefile{toc}{\contentsline {subsection}{\numberline {1.3}Possible Solution}{2}}
\citation{PharrM:04}
\@writefile{toc}{\contentsline {subsection}{\numberline {1.4}Evaluation Criteria}{3}}
\@writefile{toc}{\contentsline {section}{\numberline {2}Project Scope}{3}}
\@writefile{toc}{\contentsline {subsection}{\numberline {2.1}Aim}{3}}
\@writefile{toc}{\contentsline {subsection}{\numberline {2.2}Objectives}{3}}
\@writefile{toc}{\contentsline {subsection}{\numberline {2.3}Deliverables}{3}}
\@writefile{toc}{\contentsline {section}{\numberline {3}Project Schedule}{3}}
\@writefile{toc}{\contentsline {subsection}{\numberline {3.1}Methodology}{3}}
\@writefile{toc}{\contentsline {subsection}{\numberline {3.2}Task, Milestones and Time-line}{4}}
\bibstyle{plain}
\bibdata{planning}
\bibcite{WikiHas:14}{1}
\bibcite{PharrM:04}{2}
\@writefile{toc}{\contentsline {section}{Appendices}{5}}
\@writefile{toc}{\contentsline {section}{\numberline {A}Appendix A}{5}}
\@writefile{lof}{\contentsline {figure}{\numberline {1}{\ignorespaces Project time scheduled}}{6}}
\newlabel{fig:awesome_image}{{1}{6}}
